2022_Dec_Digital_Logic_project/newfive_add_three/simulation/qsim/newfive_add_three.msim.vcd
$comment
	File created using the following command:
		vcd file newfive_add_three.msim.vcd -direction
$end
$date
	Tue Mar 14 00:19:38 2023
$end
$version
	ModelSim Version 10.1d
$end
$timescale
	1ps
$end
$scope module newfive_add_three_vlg_vec_tst $end
$var reg 4 ! D [3:0] $end
$var wire 1 " O [3] $end
$var wire 1 # O [2] $end
$var wire 1 $ O [1] $end
$var wire 1 % O [0] $end
$var wire 1 & sampler $end
$scope module i1 $end
$var wire 1 ' gnd $end
$var wire 1 ( vcc $end
$var wire 1 ) unknown $end
$var tri1 1 * devclrn $end
$var tri1 1 + devpor $end
$var tri1 1 , devoe $end
$var wire 1 - O[3]~output_o $end
$var wire 1 . O[2]~output_o $end
$var wire 1 / O[1]~output_o $end
$var wire 1 0 O[0]~output_o $end
$var wire 1 1 D[2]~input_o $end
$var wire 1 2 D[0]~input_o $end
$var wire 1 3 D[3]~input_o $end
$var wire 1 4 D[1]~input_o $end
$var wire 1 5 inst7|45~0_combout $end
$var wire 1 6 inst7|44~0_combout $end
$var wire 1 7 inst7|43~combout $end
$var wire 1 8 inst7|27~0_combout $end
$upscope $end
$upscope $end
$enddefinitions $end
#0
$dumpvars
b0 !
x%
x$
x#
x"
x&
0'
1(
x)
1*
1+
1,
x-
x.
x/
x0
01
02
03
04
x5
x6
x7
x8
$end
#4004
17
#4109
16
05
#4110
08
#7310
0-
0"
#7725
0.
0#
#8033
0/
0$
#9330
00
0%
#10000
b1 !
0&
#10517
12
#14452
18
#19724
10
1%
#20000
b11 !
b10 !
1&
#20507
14
#20691
02
#24224
07
#24906
08
#28110
1/
1$
#30000
b11 !
0&
#30126
00
0%
#30517
12
#34452
18
#39724
10
1%
#40000
b111 !
b101 !
b100 !
1&
#40517
11
#40681
04
#40691
02
#44264
15
#44289
08
#44672
05
#44676
06
#44876
17
#48164
1.
1#
#48905
0/
0$
#49509
00
0%
#50000
b101 !
0&
#50517
12
#54432
16
#54455
15
#57773
1-
1"
#58048
0.
0#
#60000
b111 !
b110 !
1&
#60507
14
#60691
02
#64224
07
#64876
17
#64898
18
#70000
b111 !
0&
#70170
10
1%
#70517
12
#74430
07
#74460
08
#78316
1/
1$
#79680
00
0%
#80000
b1111 !
b1011 !
b1001 !
b1000 !
1&
#80507
13
#80681
04
#80691
01
02
#84305
05
#84711
15
#84898
18
#90000
b1001 !
0&
#90170
10
1%
#90517
12
#94430
17
#94457
06
#94460
08
#97945
1.
1#
#98459
0/
0$
#99680
00
0%
#100000
b1011 !
b1010 !
1&
#100507
14
#100691
02
#104224
07
#104876
17
#104898
18
#110000
b1011 !
0&
#110170
10
1%
#110517
12
#114430
07
#114460
08
#118316
1/
1$
#119680
00
0%
#120000
b1111 !
b1101 !
b1100 !
1&
#120517
11
#120681
04
#120691
02
#124262
16
#124276
05
#124676
06
#124682
15
#124898
18
#130000
b1101 !
0&
#130170
10
1%
#130517
12
#134430
17
#134432
16
#134460
08
#134463
05
#137664
0-
0"
#138048
0.
0#
#138459
0/
0$
#139680
00
0%
#140000
b1111 !
b1110 !
1&
#140507
14
#140691
02
#144224
07
#144876
17
#144898
18
#150000
b1111 !
0&
#150170
10
1%
#150517
12
#154430
07
#154460
08
#158316
1/
1$
#159680
00
0%
#160000
b111 !
b11 !
b1 !
b0 !
1&
#160681
03
04
#160691
01
02
#164685
17
#168714
0/
0$
#170000
b1 !
0&
#170517
12
#174452
18
#179724
10
1%
#180000
b11 !
b10 !
1&
#180507
14
#180691
02
#184224
07
#184906
08
#188110
1/
1$
#190000
b11 !
0&
#190126
00
0%
#190517
12
#194452
18
#199724
10
1%
#200000
b111 !
b101 !
b100 !
1&
#200517
11
#200681
04
#200691
02
#204264
15
#204289
08
#204672
05
#204676
06
#204876
17
#208164
1.
1#
#208905
0/
0$
#209509
00
0%
#210000
b101 !
0&
#210517
12
#214432
16
#214455
15
#217773
1-
1"
#218048
0.
0#
#220000
b111 !
b110 !
1&
#220507
14
#220691
02
#224224
07
#224876
17
#224898
18
#230000
b111 !
0&
#230170
10
1%
#230517
12
#234430
07
#234460
08
#238316
1/
1$
#239680
00
0%
#240000
b1111 !
b1011 !
b1001 !
b1000 !
1&
#240507
13
#240681
04
#240691
01
02
#244305
05
#244711
15
#244898
18
#250000
b1001 !
0&
#250170
10
1%
#250517
12
#254430
17
#254457
06
#254460
08
#257945
1.
1#
#258459
0/
0$
#259680
00
0%
#260000
b1011 !
b1010 !
1&
#260507
14
#260691
02
#264224
07
#264876
17
#264898
18
#270000
b1011 !
0&
#270170
10
1%
#270517
12
#274430
07
#274460
08
#278316
1/
1$
#279680
00
0%
#280000
b1111 !
b1101 !
b1100 !
1&
#280517
11
#280681
04
#280691
02
#284262
16
#284276
05
#284676
06
#284682
15
#284898
18
#290000
b1101 !
0&
#290170
10
1%
#290517
12
#294430
17
#294432
16
#294460
08
#294463
05
#297664
0-
0"
#298048
0.
0#
#298459
0/
0$
#299680
00
0%
#300000
b1111 !
b1110 !
1&
#300507
14
#300691
02
#304224
07
#304876
17
#304898
18
#310000
b1111 !
0&
#310170
10
1%
#310517
12
#314430
07
#314460
08
#318316
1/
1$
#319680
00
0%
#320000
b111 !
b11 !
b1 !
b0 !
1&
#320681
03
04
#320691
01
02
#324685
17
#328714
0/
0$
#330000
b1 !
0&
#330517
12
#334452
18
#339724
10
1%
#340000
b11 !
b10 !
1&
#340507
14
#340691
02
#344224
07
#344906
08
#348110
1/
1$
#350000
b11 !
0&
#350126
00
0%
#350517
12
#354452
18
#359724
10
1%
#360000
b111 !
b101 !
b100 !
1&
#360517
11
#360681
04
#360691
02
#364264
15
#364289
08
#364672
05
#364676
06
#364876
17
#368164
1.
1#
#368905
0/
0$
#369509
00
0%
#370000
b101 !
0&
#370517
12
#374432
16
#374455
15
#377773
1-
1"
#378048
0.
0#
#380000
b111 !
b110 !
1&
#380507
14
#380691
02
#384224
07
#384876
17
#384898
18
#390000
b111 !
0&
#390170
10
1%
#390517
12
#394430
07
#394460
08
#398316
1/
1$
#399680
00
0%
#400000
b1111 !
b1011 !
b1001 !
b1000 !
1&
#400507
13
#400681
04
#400691
01
02
#404305
05
#404711
15
#404898
18
#410000
b1001 !
0&
#410170
10
1%
#410517
12
#414430
17
#414457
06
#414460
08
#417945
1.
1#
#418459
0/
0$
#419680
00
0%
#420000
b1011 !
b1010 !
1&
#420507
14
#420691
02
#424224
07
#424876
17
#424898
18
#430000
b1011 !
0&
#430170
10
1%
#430517
12
#434430
07
#434460
08
#438316
1/
1$
#439680
00
0%
#440000
b1111 !
b1101 !
b1100 !
1&
#440517
11
#440681
04
#440691
02
#444262
16
#444276
05
#444676
06
#444682
15
#444898
18
#450000
b1101 !
0&
#450170
10
1%
#450517
12
#454430
17
#454432
16
#454460
08
#454463
05
#457664
0-
0"
#458048
0.
0#
#458459
0/
0$
#459680
00
0%
#460000
b1111 !
b1110 !
1&
#460507
14
#460691
02
#464224
07
#464876
17
#464898
18
#470000
b1111 !
0&
#470170
10
1%
#470517
12
#474430
07
#474460
08
#478316
1/
1$
#479680
00
0%
#480000
b111 !
b11 !
b1 !
b0 !
1&
#480681
03
04
#480691
01
02
#484685
17
#488714
0/
0$
#490000
b1 !
0&
#490517
12
#494452
18
#499724
10
1%
#500000
b11 !
b10 !
1&
#500507
14
#500691
02
#504224
07
#504906
08
#508110
1/
1$
#510000
b11 !
0&
#510126
00
0%
#510517
12
#514452
18
#519724
10
1%
#520000
b111 !
b101 !
b100 !
1&
#520517
11
#520681
04
#520691
02
#524264
15
#524289
08
#524672
05
#524676
06
#524876
17
#528164
1.
1#
#528905
0/
0$
#529509
00
0%
#530000
b101 !
0&
#530517
12
#534432
16
#534455
15
#537773
1-
1"
#538048
0.
0#
#540000
b111 !
b110 !
1&
#540507
14
#540691
02
#544224
07
#544876
17
#544898
18
#550000
b111 !
0&
#550170
10
1%
#550517
12
#554430
07
#554460
08
#558316
1/
1$
#559680
00
0%
#560000
b1111 !
b1011 !
b1001 !
b1000 !
1&
#560507
13
#560681
04
#560691
01
02
#564305
05
#564711
15
#564898
18
#570000
b1001 !
0&
#570170
10
1%
#570517
12
#574430
17
#574457
06
#574460
08
#577945
1.
1#
#578459
0/
0$
#579680
00
0%
#580000
b1011 !
b1010 !
1&
#580507
14
#580691
02
#584224
07
#584876
17
#584898
18
#590000
b1011 !
0&
#590170
10
1%
#590517
12
#594430
07
#594460
08
#598316
1/
1$
#599680
00
0%
#600000
b1111 !
b1101 !
b1100 !
1&
#600517
11
#600681
04
#600691
02
#604262
16
#604276
05
#604676
06
#604682
15
#604898
18
#610000
b1101 !
0&
#610170
10
1%
#610517
12
#614430
17
#614432
16
#614460
08
#614463
05
#617664
0-
0"
#618048
0.
0#
#618459
0/
0$
#619680
00
0%
#620000
b1111 !
b1110 !
1&
#620507
14
#620691
02
#624224
07
#624876
17
#624898
18
#630000
b1111 !
0&
#630170
10
1%
#630517
12
#634430
07
#634460
08
#638316
1/
1$
#639680
00
0%
#640000
b111 !
b11 !
b1 !
b0 !
1&
#640681
03
04
#640691
01
02
#644685
17
#648714
0/
0$
#650000
b1 !
0&
#650517
12
#654452
18
#659724
10
1%
#660000
b11 !
b10 !
1&
#660507
14
#660691
02
#664224
07
#664906
08
#668110
1/
1$
#670000
b11 !
0&
#670126
00
0%
#670517
12
#674452
18
#679724
10
1%
#680000
b111 !
b101 !
b100 !
1&
#680517
11
#680681
04
#680691
02
#684264
15
#684289
08
#684672
05
#684676
06
#684876
17
#688164
1.
1#
#688905
0/
0$
#689509
00
0%
#690000
b101 !
0&
#690517
12
#694432
16
#694455
15
#697773
1-
1"
#698048
0.
0#
#700000
b111 !
b110 !
1&
#700507
14
#700691
02
#704224
07
#704876
17
#704898
18
#710000
b111 !
0&
#710170
10
1%
#710517
12
#714430
07
#714460
08
#718316
1/
1$
#719680
00
0%
#720000
b1111 !
b1011 !
b1001 !
b1000 !
1&
#720507
13
#720681
04
#720691
01
02
#724305
05
#724711
15
#724898
18
#730000
b1001 !
0&
#730170
10
1%
#730517
12
#734430
17
#734457
06
#734460
08
#737945
1.
1#
#738459
0/
0$
#739680
00
0%
#740000
b1011 !
b1010 !
1&
#740507
14
#740691
02
#744224
07
#744876
17
#744898
18
#750000
b1011 !
0&
#750170
10
1%
#750517
12
#754430
07
#754460
08
#758316
1/
1$
#759680
00
0%
#760000
b1111 !
b1101 !
b1100 !
1&
#760517
11
#760681
04
#760691
02
#764262
16
#764276
05
#764676
06
#764682
15
#764898
18
#770000
b1101 !
0&
#770170
10
1%
#770517
12
#774430
17
#774432
16
#774460
08
#774463
05
#777664
0-
0"
#778048
0.
0#
#778459
0/
0$
#779680
00
0%
#780000
b1111 !
b1110 !
1&
#780507
14
#780691
02
#784224
07
#784876
17
#784898
18
#790000
b1111 !
0&
#790170
10
1%
#790517
12
#794430
07
#794460
08
#798316
1/
1$
#799680
00
0%
#800000
b111 !
b11 !
b1 !
b0 !
1&
#800681
03
04
#800691
01
02
#804685
17
#808714
0/
0$
#810000
b1 !
0&
#810517
12
#814452
18
#819724
10
1%
#820000
b11 !
b10 !
1&
#820507
14
#820691
02
#824224
07
#824906
08
#828110
1/
1$
#830000
b11 !
0&
#830126
00
0%
#830517
12
#834452
18
#839724
10
1%
#840000
b111 !
b101 !
b100 !
1&
#840517
11
#840681
04
#840691
02
#844264
15
#844289
08
#844672
05
#844676
06
#844876
17
#848164
1.
1#
#848905
0/
0$
#849509
00
0%
#850000
b101 !
0&
#850517
12
#854432
16
#854455
15
#857773
1-
1"
#858048
0.
0#
#860000
b111 !
b110 !
1&
#860507
14
#860691
02
#864224
07
#864876
17
#864898
18
#870000
b111 !
0&
#870170
10
1%
#870517
12
#874430
07
#874460
08
#878316
1/
1$
#879680
00
0%
#880000
b1111 !
b1011 !
b1001 !
b1000 !
1&
#880507
13
#880681
04
#880691
01
02
#884305
05
#884711
15
#884898
18
#890000
b1001 !
0&
#890170
10
1%
#890517
12
#894430
17
#894457
06
#894460
08
#897945
1.
1#
#898459
0/
0$
#899680
00
0%
#900000
b1011 !
b1010 !
1&
#900507
14
#900691
02
#904224
07
#904876
17
#904898
18
#910000
b1011 !
0&
#910170
10
1%
#910517
12
#914430
07
#914460
08
#918316
1/
1$
#919680
00
0%
#920000
b1111 !
b1101 !
b1100 !
1&
#920517
11
#920681
04
#920691
02
#924262
16
#924276
05
#924676
06
#924682
15
#924898
18
#930000
b1101 !
0&
#930170
10
1%
#930517
12
#934430
17
#934432
16
#934460
08
#934463
05
#937664
0-
0"
#938048
0.
0#
#938459
0/
0$
#939680
00
0%
#940000
b1111 !
b1110 !
1&
#940507
14
#940691
02
#944224
07
#944876
17
#944898
18
#950000
b1111 !
0&
#950170
10
1%
#950517
12
#954430
07
#954460
08
#958316
1/
1$
#959680
00
0%
#960000
b111 !
b11 !
b1 !
b0 !
1&
#960681
03
04
#960691
01
02
#964685
17
#968714
0/
0$
#970000
b1 !
0&
#970517
12
#974452
18
#979724
10
1%
#980000
b11 !
b10 !
1&
#980507
14
#980691
02
#984224
07
#984906
08
#988110
1/
1$
#990000
b11 !
0&
#990126
00
0%
#990517
12
#994452
18
#999724
10
1%
