2022_Dec_Digital_Logic_project/segement7decoderverilog/simulation/qsim/segement7decoderverilog.msim.vcd
$comment
	File created using the following command:
		vcd file segement7decoderverilog.msim.vcd -direction
$end
$date
	Sat Mar 18 13:23:59 2023
$end
$version
	ModelSim Version 10.1d
$end
$timescale
	1ps
$end
$scope module segement7decoderverilog_vlg_vec_tst $end
$var reg 4 ! bcd_in [3:0] $end
$var wire 1 " seg_out [7] $end
$var wire 1 # seg_out [6] $end
$var wire 1 $ seg_out [5] $end
$var wire 1 % seg_out [4] $end
$var wire 1 & seg_out [3] $end
$var wire 1 ' seg_out [2] $end
$var wire 1 ( seg_out [1] $end
$var wire 1 ) seg_out [0] $end
$var wire 1 * sampler $end
$scope module i1 $end
$var wire 1 + gnd $end
$var wire 1 , vcc $end
$var wire 1 - unknown $end
$var tri1 1 . devclrn $end
$var tri1 1 / devpor $end
$var tri1 1 0 devoe $end
$var wire 1 1 seg_out[0]~output_o $end
$var wire 1 2 seg_out[1]~output_o $end
$var wire 1 3 seg_out[2]~output_o $end
$var wire 1 4 seg_out[3]~output_o $end
$var wire 1 5 seg_out[4]~output_o $end
$var wire 1 6 seg_out[5]~output_o $end
$var wire 1 7 seg_out[6]~output_o $end
$var wire 1 8 seg_out[7]~output_o $end
$var wire 1 9 bcd_in[2]~input_o $end
$var wire 1 : bcd_in[3]~input_o $end
$var wire 1 ; bcd_in[1]~input_o $end
$var wire 1 < bcd_in[0]~input_o $end
$var wire 1 = WideOr4~0_combout $end
$var wire 1 > WideOr3~0_combout $end
$var wire 1 ? WideOr2~0_combout $end
$var wire 1 @ WideOr1~0_combout $end
$var wire 1 A WideOr0~0_combout $end
$var wire 1 B seg_out~0_combout $end
$var wire 1 C seg_out~1_combout $end
$upscope $end
$upscope $end
$enddefinitions $end
#0
$dumpvars
b0 !
x)
x(
x'
x&
x%
x$
x#
0"
x*
0+
1,
x-
1.
1/
10
x1
x2
x3
x4
x5
x6
x7
08
09
0:
0;
0<
x=
x>
x?
x@
xA
xB
xC
$end
#4086
0B
#4088
0A
#4093
0>
#4416
0C
#4436
0@
#4438
0?
#4452
0=
#7473
05
0%
#7509
02
0(
#7514
06
0$
#7872
03
0'
#8016
11
1)
#8029
07
0#
#8155
04
0&
#10000
b1 !
0*
#10659
1<
#14194
1>
1?
#14199
1@
#14201
1C
#17700
12
1(
#17722
13
1'
#17937
17
1#
#18011
14
1&
#20000
b11 !
b10 !
1*
#20669
1;
#20765
0<
#24509
0C
#24512
0@
#24525
1=
#24541
0?
#24562
1A
#27975
03
0'
#28039
15
1%
#28122
07
0#
#28199
01
0)
#28231
04
0&
#30000
b11 !
0*
#30659
1<
#34183
0A
#34194
1?
#37568
05
0%
#37722
13
1'
#40000
b111 !
b101 !
b100 !
1*
#40729
19
#40765
0<
#40775
0;
#44541
0?
#44865
1C
#44869
1@
#44873
1?
#44929
0>
#48345
02
0(
#48601
17
1#
#48681
14
1&
#50000
b101 !
0*
#50659
1<
#54183
0@
#54185
0C
#54200
1B
#57715
16
1$
#57798
07
0#
#57902
04
0&
#60000
b111 !
b110 !
1*
#60669
1;
#60765
0<
#64541
0?
#67975
03
0'
#70000
b111 !
0*
#70659
1<
#74175
0=
#74184
0B
#74194
1>
1?
#74199
1@
#77612
06
0$
#77700
12
1(
#77722
13
1'
#77739
11
1)
#78011
14
1&
#80000
b1111 !
b1011 !
b1001 !
b1000 !
1*
#80679
1:
#80765
0<
#80775
0;
#80835
09
#84517
1A
#85271
0@
0A
#85273
0>
0?
#85279
1=
#88689
02
0(
#88707
03
0'
#88953
01
0)
#88990
04
0&
#90000
b1001 !
0*
#90659
1<
#94194
1?
#97722
13
1'
#100000
b1011 !
b1010 !
1*
#100669
1;
#100765
0<
#104518
1@
1A
#104519
0=
#104522
1>
#107995
15
1%
#108028
12
1(
#108083
11
1)
#108330
14
1&
#110000
b1011 !
0*
#110659
1<
#120000
b1111 !
b1101 !
b1100 !
1*
#120729
19
#120765
0<
#120775
0;
#130000
b1101 !
0*
#130659
1<
#140000
b1111 !
b1110 !
1*
#140669
1;
#140765
0<
#150000
b1111 !
0*
#150659
1<
#160000
b111 !
b11 !
b1 !
b0 !
1*
#160765
0<
#160775
0;
#160785
0:
#160835
09
#164921
0>
#164926
0A
#165271
0@
#165273
0?
#168311
05
0%
#168337
02
0(
#168707
03
0'
#168990
04
0&
#170000
b1 !
0*
#170659
1<
#174194
1>
1?
#174199
1@
#174201
1C
#177700
12
1(
#177722
13
1'
#177937
17
1#
#178011
14
1&
#180000
b11 !
b10 !
1*
#180669
1;
#180765
0<
#184509
0C
#184512
0@
#184525
1=
#184541
0?
#184562
1A
#187975
03
0'
#188039
15
1%
#188122
07
0#
#188199
01
0)
#188231
04
0&
#190000
b11 !
0*
#190659
1<
#194183
0A
#194194
1?
#197568
05
0%
#197722
13
1'
#200000
b111 !
b101 !
b100 !
1*
#200729
19
#200765
0<
#200775
0;
#204541
0?
#204865
1C
#204869
1@
#204873
1?
#204929
0>
#208345
02
0(
#208601
17
1#
#208681
14
1&
#210000
b101 !
0*
#210659
1<
#214183
0@
#214185
0C
#214200
1B
#217715
16
1$
#217798
07
0#
#217902
04
0&
#220000
b111 !
b110 !
1*
#220669
1;
#220765
0<
#224541
0?
#227975
03
0'
#230000
b111 !
0*
#230659
1<
#234175
0=
#234184
0B
#234194
1>
1?
#234199
1@
#237612
06
0$
#237700
12
1(
#237722
13
1'
#237739
11
1)
#238011
14
1&
#240000
b1111 !
b1011 !
b1001 !
b1000 !
1*
#240679
1:
#240765
0<
#240775
0;
#240835
09
#244517
1A
#245271
0@
0A
#245273
0>
0?
#245279
1=
#248689
02
0(
#248707
03
0'
#248953
01
0)
#248990
04
0&
#250000
b1001 !
0*
#250659
1<
#254194
1?
#257722
13
1'
#260000
b1011 !
b1010 !
1*
#260669
1;
#260765
0<
#264518
1@
1A
#264519
0=
#264522
1>
#267995
15
1%
#268028
12
1(
#268083
11
1)
#268330
14
1&
#270000
b1011 !
0*
#270659
1<
#280000
b1111 !
b1101 !
b1100 !
1*
#280729
19
#280765
0<
#280775
0;
#290000
b1101 !
0*
#290659
1<
#300000
b1111 !
b1110 !
1*
#300669
1;
#300765
0<
#310000
b1111 !
0*
#310659
1<
#320000
b111 !
b11 !
b1 !
b0 !
1*
#320765
0<
#320775
0;
#320785
0:
#320835
09
#324921
0>
#324926
0A
#325271
0@
#325273
0?
#328311
05
0%
#328337
02
0(
#328707
03
0'
#328990
04
0&
#330000
b1 !
0*
#330659
1<
#334194
1>
1?
#334199
1@
#334201
1C
#337700
12
1(
#337722
13
1'
#337937
17
1#
#338011
14
1&
#340000
b11 !
b10 !
1*
#340669
1;
#340765
0<
#344509
0C
#344512
0@
#344525
1=
#344541
0?
#344562
1A
#347975
03
0'
#348039
15
1%
#348122
07
0#
#348199
01
0)
#348231
04
0&
#350000
b11 !
0*
#350659
1<
#354183
0A
#354194
1?
#357568
05
0%
#357722
13
1'
#360000
b111 !
b101 !
b100 !
1*
#360729
19
#360765
0<
#360775
0;
#364541
0?
#364865
1C
#364869
1@
#364873
1?
#364929
0>
#368345
02
0(
#368601
17
1#
#368681
14
1&
#370000
b101 !
0*
#370659
1<
#374183
0@
#374185
0C
#374200
1B
#377715
16
1$
#377798
07
0#
#377902
04
0&
#380000
b111 !
b110 !
1*
#380669
1;
#380765
0<
#384541
0?
#387975
03
0'
#390000
b111 !
0*
#390659
1<
#394175
0=
#394184
0B
#394194
1>
1?
#394199
1@
#397612
06
0$
#397700
12
1(
#397722
13
1'
#397739
11
1)
#398011
14
1&
#400000
b1111 !
b1011 !
b1001 !
b1000 !
1*
#400679
1:
#400765
0<
#400775
0;
#400835
09
#404517
1A
#405271
0@
0A
#405273
0>
0?
#405279
1=
#408689
02
0(
#408707
03
0'
#408953
01
0)
#408990
04
0&
#410000
b1001 !
0*
#410659
1<
#414194
1?
#417722
13
1'
#420000
b1011 !
b1010 !
1*
#420669
1;
#420765
0<
#424518
1@
1A
#424519
0=
#424522
1>
#427995
15
1%
#428028
12
1(
#428083
11
1)
#428330
14
1&
#430000
b1011 !
0*
#430659
1<
#440000
b1111 !
b1101 !
b1100 !
1*
#440729
19
#440765
0<
#440775
0;
#450000
b1101 !
0*
#450659
1<
#460000
b1111 !
b1110 !
1*
#460669
1;
#460765
0<
#470000
b1111 !
0*
#470659
1<
#480000
b111 !
b11 !
b1 !
b0 !
1*
#480765
0<
#480775
0;
#480785
0:
#480835
09
#484921
0>
#484926
0A
#485271
0@
#485273
0?
#488311
05
0%
#488337
02
0(
#488707
03
0'
#488990
04
0&
#490000
b1 !
0*
#490659
1<
#494194
1>
1?
#494199
1@
#494201
1C
#497700
12
1(
#497722
13
1'
#497937
17
1#
#498011
14
1&
#500000
b11 !
b10 !
1*
#500669
1;
#500765
0<
#504509
0C
#504512
0@
#504525
1=
#504541
0?
#504562
1A
#507975
03
0'
#508039
15
1%
#508122
07
0#
#508199
01
0)
#508231
04
0&
#510000
b11 !
0*
#510659
1<
#514183
0A
#514194
1?
#517568
05
0%
#517722
13
1'
#520000
b111 !
b101 !
b100 !
1*
#520729
19
#520765
0<
#520775
0;
#524541
0?
#524865
1C
#524869
1@
#524873
1?
#524929
0>
#528345
02
0(
#528601
17
1#
#528681
14
1&
#530000
b101 !
0*
#530659
1<
#534183
0@
#534185
0C
#534200
1B
#537715
16
1$
#537798
07
0#
#537902
04
0&
#540000
b111 !
b110 !
1*
#540669
1;
#540765
0<
#544541
0?
#547975
03
0'
#550000
b111 !
0*
#550659
1<
#554175
0=
#554184
0B
#554194
1>
1?
#554199
1@
#557612
06
0$
#557700
12
1(
#557722
13
1'
#557739
11
1)
#558011
14
1&
#560000
b1111 !
b1011 !
b1001 !
b1000 !
1*
#560679
1:
#560765
0<
#560775
0;
#560835
09
#564517
1A
#565271
0@
0A
#565273
0>
0?
#565279
1=
#568689
02
0(
#568707
03
0'
#568953
01
0)
#568990
04
0&
#570000
b1001 !
0*
#570659
1<
#574194
1?
#577722
13
1'
#580000
b1011 !
b1010 !
1*
#580669
1;
#580765
0<
#584518
1@
1A
#584519
0=
#584522
1>
#587995
15
1%
#588028
12
1(
#588083
11
1)
#588330
14
1&
#590000
b1011 !
0*
#590659
1<
#600000
b1111 !
b1101 !
b1100 !
1*
#600729
19
#600765
0<
#600775
0;
#610000
b1101 !
0*
#610659
1<
#620000
b1111 !
b1110 !
1*
#620669
1;
#620765
0<
#630000
b1111 !
0*
#630659
1<
#640000
b111 !
b11 !
b1 !
b0 !
1*
#640765
0<
#640775
0;
#640785
0:
#640835
09
#644921
0>
#644926
0A
#645271
0@
#645273
0?
#648311
05
0%
#648337
02
0(
#648707
03
0'
#648990
04
0&
#650000
b1 !
0*
#650659
1<
#654194
1>
1?
#654199
1@
#654201
1C
#657700
12
1(
#657722
13
1'
#657937
17
1#
#658011
14
1&
#660000
b11 !
b10 !
1*
#660669
1;
#660765
0<
#664509
0C
#664512
0@
#664525
1=
#664541
0?
#664562
1A
#667975
03
0'
#668039
15
1%
#668122
07
0#
#668199
01
0)
#668231
04
0&
#670000
b11 !
0*
#670659
1<
#674183
0A
#674194
1?
#677568
05
0%
#677722
13
1'
#680000
b111 !
b101 !
b100 !
1*
#680729
19
#680765
0<
#680775
0;
#684541
0?
#684865
1C
#684869
1@
#684873
1?
#684929
0>
#688345
02
0(
#688601
17
1#
#688681
14
1&
#690000
b101 !
0*
#690659
1<
#694183
0@
#694185
0C
#694200
1B
#697715
16
1$
#697798
07
0#
#697902
04
0&
#700000
b111 !
b110 !
1*
#700669
1;
#700765
0<
#704541
0?
#707975
03
0'
#710000
b111 !
0*
#710659
1<
#714175
0=
#714184
0B
#714194
1>
1?
#714199
1@
#717612
06
0$
#717700
12
1(
#717722
13
1'
#717739
11
1)
#718011
14
1&
#720000
b1111 !
b1011 !
b1001 !
b1000 !
1*
#720679
1:
#720765
0<
#720775
0;
#720835
09
#724517
1A
#725271
0@
0A
#725273
0>
0?
#725279
1=
#728689
02
0(
#728707
03
0'
#728953
01
0)
#728990
04
0&
#730000
b1001 !
0*
#730659
1<
#734194
1?
#737722
13
1'
#740000
b1011 !
b1010 !
1*
#740669
1;
#740765
0<
#744518
1@
1A
#744519
0=
#744522
1>
#747995
15
1%
#748028
12
1(
#748083
11
1)
#748330
14
1&
#750000
b1011 !
0*
#750659
1<
#760000
b1111 !
b1101 !
b1100 !
1*
#760729
19
#760765
0<
#760775
0;
#770000
b1101 !
0*
#770659
1<
#780000
b1111 !
b1110 !
1*
#780669
1;
#780765
0<
#790000
b1111 !
0*
#790659
1<
#800000
b111 !
b11 !
b1 !
b0 !
1*
#800765
0<
#800775
0;
#800785
0:
#800835
09
#804921
0>
#804926
0A
#805271
0@
#805273
0?
#808311
05
0%
#808337
02
0(
#808707
03
0'
#808990
04
0&
#810000
b1 !
0*
#810659
1<
#814194
1>
1?
#814199
1@
#814201
1C
#817700
12
1(
#817722
13
1'
#817937
17
1#
#818011
14
1&
#820000
b11 !
b10 !
1*
#820669
1;
#820765
0<
#824509
0C
#824512
0@
#824525
1=
#824541
0?
#824562
1A
#827975
03
0'
#828039
15
1%
#828122
07
0#
#828199
01
0)
#828231
04
0&
#830000
b11 !
0*
#830659
1<
#834183
0A
#834194
1?
#837568
05
0%
#837722
13
1'
#840000
b111 !
b101 !
b100 !
1*
#840729
19
#840765
0<
#840775
0;
#844541
0?
#844865
1C
#844869
1@
#844873
1?
#844929
0>
#848345
02
0(
#848601
17
1#
#848681
14
1&
#850000
b101 !
0*
#850659
1<
#854183
0@
#854185
0C
#854200
1B
#857715
16
1$
#857798
07
0#
#857902
04
0&
#860000
b111 !
b110 !
1*
#860669
1;
#860765
0<
#864541
0?
#867975
03
0'
#870000
b111 !
0*
#870659
1<
#874175
0=
#874184
0B
#874194
1>
1?
#874199
1@
#877612
06
0$
#877700
12
1(
#877722
13
1'
#877739
11
1)
#878011
14
1&
#880000
b1111 !
b1011 !
b1001 !
b1000 !
1*
#880679
1:
#880765
0<
#880775
0;
#880835
09
#884517
1A
#885271
0@
0A
#885273
0>
0?
#885279
1=
#888689
02
0(
#888707
03
0'
#888953
01
0)
#888990
04
0&
#890000
b1001 !
0*
#890659
1<
#894194
1?
#897722
13
1'
#900000
b1011 !
b1010 !
1*
#900669
1;
#900765
0<
#904518
1@
1A
#904519
0=
#904522
1>
#907995
15
1%
#908028
12
1(
#908083
11
1)
#908330
14
1&
#910000
b1011 !
0*
#910659
1<
#920000
b1111 !
b1101 !
b1100 !
1*
#920729
19
#920765
0<
#920775
0;
#930000
b1101 !
0*
#930659
1<
#940000
b1111 !
b1110 !
1*
#940669
1;
#940765
0<
#950000
b1111 !
0*
#950659
1<
#960000
b111 !
b11 !
b1 !
b0 !
1*
#960765
0<
#960775
0;
#960785
0:
#960835
09
#964921
0>
#964926
0A
#965271
0@
#965273
0?
#968311
05
0%
#968337
02
0(
#968707
03
0'
#968990
04
0&
#970000
b1 !
0*
#970659
1<
#974194
1>
1?
#974199
1@
#974201
1C
#977700
12
1(
#977722
13
1'
#977937
17
1#
#978011
14
1&
#980000
b11 !
b10 !
1*
#980669
1;
#980765
0<
#984509
0C
#984512
0@
#984525
1=
#984541
0?
#984562
1A
#987975
03
0'
#988039
15
1%
#988122
07
0#
#988199
01
0)
#988231
04
0&
#990000
b11 !
0*
#990659
1<
#994183
0A
#994194
1?
#997568
05
0%
#997722
13
1'
