2022_Dec_Digital_Logic_project/five_add_three/simulation/qsim/five_add_three.msim.vcd
$comment
	File created using the following command:
		vcd file five_add_three.msim.vcd -direction
$end
$date
	Sun Mar 12 12:34:43 2023
$end
$version
	ModelSim Version 10.1d
$end
$timescale
	1ps
$end
$scope module five_add_three_vlg_vec_tst $end
$var reg 4 ! D [3:0] $end
$var wire 1 " O [3] $end
$var wire 1 # O [2] $end
$var wire 1 $ O [1] $end
$var wire 1 % O [0] $end
$var wire 1 & sampler $end
$scope module i1 $end
$var wire 1 ' gnd $end
$var wire 1 ( vcc $end
$var wire 1 ) unknown $end
$var tri1 1 * devclrn $end
$var tri1 1 + devpor $end
$var tri1 1 , devoe $end
$var wire 1 - O[3]~output_o $end
$var wire 1 . O[2]~output_o $end
$var wire 1 / O[1]~output_o $end
$var wire 1 0 O[0]~output_o $end
$var wire 1 1 D[3]~input_o $end
$var wire 1 2 D[1]~input_o $end
$var wire 1 3 D[0]~input_o $end
$var wire 1 4 D[2]~input_o $end
$var wire 1 5 inst7|45~0_combout $end
$var wire 1 6 inst7|44~0_combout $end
$var wire 1 7 inst7|43~combout $end
$var wire 1 8 inst7|27~0_combout $end
$upscope $end
$upscope $end
$enddefinitions $end
#0
$dumpvars
b0 !
0%
0$
0#
0"
x&
0'
1(
x)
1*
1+
1,
0-
0.
0/
00
01
02
03
04
05
16
17
08
$end
#10000
b1 !
13
0&
18
10
1%
#20000
b11 !
b10 !
03
12
1&
07
08
1/
00
1$
0%
#30000
b11 !
13
0&
18
10
1%
#40000
b111 !
b101 !
b100 !
03
02
14
1&
17
06
08
0/
1.
00
0$
1#
0%
#50000
b101 !
13
0&
16
15
0.
1-
0#
1"
#60000
b111 !
b110 !
03
12
1&
18
10
1%
#70000
b111 !
13
0&
07
08
1/
00
1$
0%
#80000
b1111 !
b1011 !
b1001 !
b1000 !
03
02
04
11
1&
18
10
1%
#90000
b1001 !
13
0&
17
06
08
0/
1.
00
0$
1#
0%
#100000
b1011 !
b1010 !
03
12
1&
18
10
1%
#110000
b1011 !
13
0&
07
08
1/
00
1$
0%
#120000
b1111 !
b1101 !
b1100 !
03
02
14
1&
18
10
1%
#130000
b1101 !
13
0&
17
16
08
05
0/
0.
00
0-
0$
0#
0%
0"
#140000
b1111 !
b1110 !
03
12
1&
18
10
1%
#150000
b1111 !
13
0&
07
08
1/
00
1$
0%
#160000
b111 !
b11 !
b1 !
b0 !
03
02
04
01
1&
17
0/
0$
#170000
b1 !
13
0&
18
10
1%
#180000
b11 !
b10 !
03
12
1&
07
08
1/
00
1$
0%
#190000
b11 !
13
0&
18
10
1%
#200000
b111 !
b101 !
b100 !
03
02
14
1&
17
06
08
0/
1.
00
0$
1#
0%
#210000
b101 !
13
0&
16
15
0.
1-
0#
1"
#220000
b111 !
b110 !
03
12
1&
18
10
1%
#230000
b111 !
13
0&
07
08
1/
00
1$
0%
#240000
b1111 !
b1011 !
b1001 !
b1000 !
03
02
04
11
1&
18
10
1%
#250000
b1001 !
13
0&
17
06
08
0/
1.
00
0$
1#
0%
#260000
b1011 !
b1010 !
03
12
1&
18
10
1%
#270000
b1011 !
13
0&
07
08
1/
00
1$
0%
#280000
b1111 !
b1101 !
b1100 !
03
02
14
1&
18
10
1%
#290000
b1101 !
13
0&
17
16
08
05
0/
0.
00
0-
0$
0#
0%
0"
#300000
b1111 !
b1110 !
03
12
1&
18
10
1%
#310000
b1111 !
13
0&
07
08
1/
00
1$
0%
#320000
b111 !
b11 !
b1 !
b0 !
03
02
04
01
1&
17
0/
0$
#330000
b1 !
13
0&
18
10
1%
#340000
b11 !
b10 !
03
12
1&
07
08
1/
00
1$
0%
#350000
b11 !
13
0&
18
10
1%
#360000
b111 !
b101 !
b100 !
03
02
14
1&
17
06
08
0/
1.
00
0$
1#
0%
#370000
b101 !
13
0&
16
15
0.
1-
0#
1"
#380000
b111 !
b110 !
03
12
1&
18
10
1%
#390000
b111 !
13
0&
07
08
1/
00
1$
0%
#400000
b1111 !
b1011 !
b1001 !
b1000 !
03
02
04
11
1&
18
10
1%
#410000
b1001 !
13
0&
17
06
08
0/
1.
00
0$
1#
0%
#420000
b1011 !
b1010 !
03
12
1&
18
10
1%
#430000
b1011 !
13
0&
07
08
1/
00
1$
0%
#440000
b1111 !
b1101 !
b1100 !
03
02
14
1&
18
10
1%
#450000
b1101 !
13
0&
17
16
08
05
0/
0.
00
0-
0$
0#
0%
0"
#460000
b1111 !
b1110 !
03
12
1&
18
10
1%
#470000
b1111 !
13
0&
07
08
1/
00
1$
0%
#480000
b111 !
b11 !
b1 !
b0 !
03
02
04
01
1&
17
0/
0$
#490000
b1 !
13
0&
18
10
1%
#500000
b11 !
b10 !
03
12
1&
07
08
1/
00
1$
0%
#510000
b11 !
13
0&
18
10
1%
#520000
b111 !
b101 !
b100 !
03
02
14
1&
17
06
08
0/
1.
00
0$
1#
0%
#530000
b101 !
13
0&
16
15
0.
1-
0#
1"
#540000
b111 !
b110 !
03
12
1&
18
10
1%
#550000
b111 !
13
0&
07
08
1/
00
1$
0%
#560000
b1111 !
b1011 !
b1001 !
b1000 !
03
02
04
11
1&
18
10
1%
#570000
b1001 !
13
0&
17
06
08
0/
1.
00
0$
1#
0%
#580000
b1011 !
b1010 !
03
12
1&
18
10
1%
#590000
b1011 !
13
0&
07
08
1/
00
1$
0%
#600000
b1111 !
b1101 !
b1100 !
03
02
14
1&
18
10
1%
#610000
b1101 !
13
0&
17
16
08
05
0/
0.
00
0-
0$
0#
0%
0"
#620000
b1111 !
b1110 !
03
12
1&
18
10
1%
#630000
b1111 !
13
0&
07
08
1/
00
1$
0%
#640000
b111 !
b11 !
b1 !
b0 !
03
02
04
01
1&
17
0/
0$
#650000
b1 !
13
0&
18
10
1%
#660000
b11 !
b10 !
03
12
1&
07
08
1/
00
1$
0%
#670000
b11 !
13
0&
18
10
1%
#680000
b111 !
b101 !
b100 !
03
02
14
1&
17
06
08
0/
1.
00
0$
1#
0%
#690000
b101 !
13
0&
16
15
0.
1-
0#
1"
#700000
b111 !
b110 !
03
12
1&
18
10
1%
#710000
b111 !
13
0&
07
08
1/
00
1$
0%
#720000
b1111 !
b1011 !
b1001 !
b1000 !
03
02
04
11
1&
18
10
1%
#730000
b1001 !
13
0&
17
06
08
0/
1.
00
0$
1#
0%
#740000
b1011 !
b1010 !
03
12
1&
18
10
1%
#750000
b1011 !
13
0&
07
08
1/
00
1$
0%
#760000
b1111 !
b1101 !
b1100 !
03
02
14
1&
18
10
1%
#770000
b1101 !
13
0&
17
16
08
05
0/
0.
00
0-
0$
0#
0%
0"
#780000
b1111 !
b1110 !
03
12
1&
18
10
1%
#790000
b1111 !
13
0&
07
08
1/
00
1$
0%
#800000
b111 !
b11 !
b1 !
b0 !
03
02
04
01
1&
17
0/
0$
#810000
b1 !
13
0&
18
10
1%
#820000
b11 !
b10 !
03
12
1&
07
08
1/
00
1$
0%
#830000
b11 !
13
0&
18
10
1%
#840000
b111 !
b101 !
b100 !
03
02
14
1&
17
06
08
0/
1.
00
0$
1#
0%
#850000
b101 !
13
0&
16
15
0.
1-
0#
1"
#860000
b111 !
b110 !
03
12
1&
18
10
1%
#870000
b111 !
13
0&
07
08
1/
00
1$
0%
#880000
b1111 !
b1011 !
b1001 !
b1000 !
03
02
04
11
1&
18
10
1%
#890000
b1001 !
13
0&
17
06
08
0/
1.
00
0$
1#
0%
#900000
b1011 !
b1010 !
03
12
1&
18
10
1%
#910000
b1011 !
13
0&
07
08
1/
00
1$
0%
#920000
b1111 !
b1101 !
b1100 !
03
02
14
1&
18
10
1%
#930000
b1101 !
13
0&
17
16
08
05
0/
0.
00
0-
0$
0#
0%
0"
#940000
b1111 !
b1110 !
03
12
1&
18
10
1%
#950000
b1111 !
13
0&
07
08
1/
00
1$
0%
#960000
b111 !
b11 !
b1 !
b0 !
03
02
04
01
1&
17
0/
0$
#970000
b1 !
13
0&
18
10
1%
#980000
b11 !
b10 !
03
12
1&
07
08
1/
00
1$
0%
#990000
b11 !
13
0&
18
10
1%
