2022_Dec_Digital_Logic_project/segementdecoder7/simulation/qsim/segementdecoder7.msim.vcd
$comment
	File created using the following command:
		vcd file segementdecoder7.msim.vcd -direction
$end
$date
	Wed Mar 15 17:07:50 2023
$end
$version
	ModelSim Version 10.1d
$end
$timescale
	1ps
$end
$scope module segementdecoder7_vlg_vec_tst $end
$var reg 1 ! inputA $end
$var reg 1 " inputB $end
$var reg 1 # inputC $end
$var reg 1 $ inputD $end
$var wire 1 % a $end
$var wire 1 & b $end
$var wire 1 ' c $end
$var wire 1 ( d $end
$var wire 1 ) e $end
$var wire 1 * f $end
$var wire 1 + g $end
$var wire 1 , sampler $end
$scope module i1 $end
$var wire 1 - gnd $end
$var wire 1 . vcc $end
$var wire 1 / unknown $end
$var tri1 1 0 devclrn $end
$var tri1 1 1 devpor $end
$var tri1 1 2 devoe $end
$var wire 1 3 a~output_o $end
$var wire 1 4 b~output_o $end
$var wire 1 5 c~output_o $end
$var wire 1 6 d~output_o $end
$var wire 1 7 e~output_o $end
$var wire 1 8 f~output_o $end
$var wire 1 9 g~output_o $end
$var wire 1 : inputA~input_o $end
$var wire 1 ; inputB~input_o $end
$var wire 1 < inputC~input_o $end
$var wire 1 = inputD~input_o $end
$var wire 1 > inst10~combout $end
$var wire 1 ? inst15~0_combout $end
$var wire 1 @ inst17~0_combout $end
$var wire 1 A inst25~0_combout $end
$var wire 1 B inst29~0_combout $end
$var wire 1 C inst33~combout $end
$var wire 1 D inst41~0_combout $end
$upscope $end
$upscope $end
$enddefinitions $end
#0
$dumpvars
0!
0"
0#
0$
x%
x&
x'
x(
x)
x*
x+
x,
0-
1.
x/
10
11
12
x3
x4
x5
x6
x7
x8
x9
0:
0;
0<
0=
x>
x?
x@
xA
xB
xC
xD
$end
#3542
0A
#3557
1B
#3665
1@
1C
#3667
1?
#3852
1>
0D
#6800
17
1)
#7231
18
1*
#7234
15
1'
#7293
14
1&
#7429
13
1%
#7435
09
0+
#8130
16
1(
#10000
1$
0,
#10640
1=
#13568
0>
0C
#13878
1A
#13899
0B
#17095
08
0*
#17107
03
07
0%
0)
#18401
06
0(
#20000
1#
0$
1,
#20690
1<
#20746
0=
#23956
1>
#24083
0@
#24085
0A
#24092
1D
#24278
1B
#27521
17
1)
#27533
13
1%
#27614
05
0'
#27709
19
1+
#28673
16
1(
#30000
1$
0,
#30640
1=
#33585
1@
#33899
0B
#37107
07
0)
#37154
15
1'
#40000
1"
0#
0$
1,
#40670
1;
#40746
0=
#40796
0<
#44254
1C
#44457
0>
#44463
1A
#47820
18
1*
#47996
03
0%
#48986
06
0(
#50000
1$
0,
#50640
1=
#53564
0?
#53584
1>
#53885
0A
#57154
04
0&
#57161
13
1%
#58473
16
1(
#60000
1#
0$
1,
#60690
1<
#60746
0=
#64278
1B
#67521
17
1)
#70000
1$
0,
#70640
1=
#73564
0D
#73580
1?
#73878
1A
#73899
0B
#77107
07
0)
#77147
09
0+
#77206
14
1&
#78401
06
0(
#80000
1!
0"
0#
0$
1,
#80660
1:
#80746
0=
#80776
0;
#80796
0<
#83935
0?
#83952
1D
#84318
0A
#84333
1B
#84463
1?
#87569
19
1+
#87576
17
1)
#88906
16
1(
#90000
1$
0,
#90640
1=
#93878
1A
#93899
0B
#97107
07
0)
#98401
06
0(
#100000
1#
0$
1,
#100690
1<
#100746
0=
#104085
0A
#104086
0?
#104278
1B
#107521
17
1)
#107676
04
0&
#108673
16
1(
#110000
1$
0,
#110640
1=
#113580
1?
#113899
0B
#117107
07
0)
#117206
14
1&
#120000
1"
0#
0$
1,
#120670
1;
#120746
0=
#120796
0<
#123935
0?
#124463
1A
1?
#128986
06
0(
#130000
1$
0,
#130640
1=
#133564
0?
#133885
0A
#137154
04
0&
#138473
16
1(
#140000
1#
0$
1,
#140690
1<
#140746
0=
#144278
1B
#147521
17
1)
#150000
1$
0,
#150640
1=
#153564
0D
#153580
1?
#153878
1A
#153899
0B
#157107
07
0)
#157147
09
0+
#157206
14
1&
#158401
06
0(
#160000
0!
0"
0#
0$
1,
#160746
0=
#160766
0:
#160776
0;
#160796
0<
#163935
0?
#163952
1D
#164318
0A
#164333
1B
#164463
1?
#164628
0D
#167576
17
1)
#168906
16
1(
#170000
1$
0,
#170640
1=
#173568
0>
0C
#173878
1A
#173899
0B
#177095
08
0*
#177107
03
07
0%
0)
#178401
06
0(
#180000
1#
0$
1,
#180690
1<
#180746
0=
#183956
1>
#184083
0@
#184085
0A
#184092
1D
#184278
1B
#187521
17
1)
#187533
13
1%
#187614
05
0'
#187709
19
1+
#188673
16
1(
#190000
1$
0,
#190640
1=
#193585
1@
#193899
0B
#197107
07
0)
#197154
15
1'
#200000
1"
0#
0$
1,
#200670
1;
#200746
0=
#200796
0<
#204254
1C
#204457
0>
#204463
1A
#207820
18
1*
#207996
03
0%
#208986
06
0(
#210000
1$
0,
#210640
1=
#213564
0?
#213584
1>
#213885
0A
#217154
04
0&
#217161
13
1%
#218473
16
1(
#220000
1#
0$
1,
#220690
1<
#220746
0=
#224278
1B
#227521
17
1)
#230000
1$
0,
#230640
1=
#233564
0D
#233580
1?
#233878
1A
#233899
0B
#237107
07
0)
#237147
09
0+
#237206
14
1&
#238401
06
0(
#240000
1!
0"
0#
0$
1,
#240660
1:
#240746
0=
#240776
0;
#240796
0<
#243935
0?
#243952
1D
#244318
0A
#244333
1B
#244463
1?
#247569
19
1+
#247576
17
1)
#248906
16
1(
#250000
1$
0,
#250640
1=
#253878
1A
#253899
0B
#257107
07
0)
#258401
06
0(
#260000
1#
0$
1,
#260690
1<
#260746
0=
#264085
0A
#264086
0?
#264278
1B
#267521
17
1)
#267676
04
0&
#268673
16
1(
#270000
1$
0,
#270640
1=
#273580
1?
#273899
0B
#277107
07
0)
#277206
14
1&
#280000
1"
0#
0$
1,
#280670
1;
#280746
0=
#280796
0<
#283935
0?
#284463
1A
1?
#288986
06
0(
#290000
1$
0,
#290640
1=
#293564
0?
#293885
0A
#297154
04
0&
#298473
16
1(
#300000
1#
0$
1,
#300690
1<
#300746
0=
#304278
1B
#307521
17
1)
#310000
1$
0,
#310640
1=
#313564
0D
#313580
1?
#313878
1A
#313899
0B
#317107
07
0)
#317147
09
0+
#317206
14
1&
#318401
06
0(
#320000
0!
0"
0#
0$
1,
#320746
0=
#320766
0:
#320776
0;
#320796
0<
#323935
0?
#323952
1D
#324318
0A
#324333
1B
#324463
1?
#324628
0D
#327576
17
1)
#328906
16
1(
#330000
1$
0,
#330640
1=
#333568
0>
0C
#333878
1A
#333899
0B
#337095
08
0*
#337107
03
07
0%
0)
#338401
06
0(
#340000
1#
0$
1,
#340690
1<
#340746
0=
#343956
1>
#344083
0@
#344085
0A
#344092
1D
#344278
1B
#347521
17
1)
#347533
13
1%
#347614
05
0'
#347709
19
1+
#348673
16
1(
#350000
1$
0,
#350640
1=
#353585
1@
#353899
0B
#357107
07
0)
#357154
15
1'
#360000
1"
0#
0$
1,
#360670
1;
#360746
0=
#360796
0<
#364254
1C
#364457
0>
#364463
1A
#367820
18
1*
#367996
03
0%
#368986
06
0(
#370000
1$
0,
#370640
1=
#373564
0?
#373584
1>
#373885
0A
#377154
04
0&
#377161
13
1%
#378473
16
1(
#380000
1#
0$
1,
#380690
1<
#380746
0=
#384278
1B
#387521
17
1)
#390000
1$
0,
#390640
1=
#393564
0D
#393580
1?
#393878
1A
#393899
0B
#397107
07
0)
#397147
09
0+
#397206
14
1&
#398401
06
0(
#400000
1!
0"
0#
0$
1,
#400660
1:
#400746
0=
#400776
0;
#400796
0<
#403935
0?
#403952
1D
#404318
0A
#404333
1B
#404463
1?
#407569
19
1+
#407576
17
1)
#408906
16
1(
#410000
1$
0,
#410640
1=
#413878
1A
#413899
0B
#417107
07
0)
#418401
06
0(
#420000
1#
0$
1,
#420690
1<
#420746
0=
#424085
0A
#424086
0?
#424278
1B
#427521
17
1)
#427676
04
0&
#428673
16
1(
#430000
1$
0,
#430640
1=
#433580
1?
#433899
0B
#437107
07
0)
#437206
14
1&
#440000
1"
0#
0$
1,
#440670
1;
#440746
0=
#440796
0<
#443935
0?
#444463
1A
1?
#448986
06
0(
#450000
1$
0,
#450640
1=
#453564
0?
#453885
0A
#457154
04
0&
#458473
16
1(
#460000
1#
0$
1,
#460690
1<
#460746
0=
#464278
1B
#467521
17
1)
#470000
1$
0,
#470640
1=
#473564
0D
#473580
1?
#473878
1A
#473899
0B
#477107
07
0)
#477147
09
0+
#477206
14
1&
#478401
06
0(
#480000
0!
0"
0#
0$
1,
#480746
0=
#480766
0:
#480776
0;
#480796
0<
#483935
0?
#483952
1D
#484318
0A
#484333
1B
#484463
1?
#484628
0D
#487576
17
1)
#488906
16
1(
#490000
1$
0,
#490640
1=
#493568
0>
0C
#493878
1A
#493899
0B
#497095
08
0*
#497107
03
07
0%
0)
#498401
06
0(
#500000
1#
0$
1,
#500690
1<
#500746
0=
#503956
1>
#504083
0@
#504085
0A
#504092
1D
#504278
1B
#507521
17
1)
#507533
13
1%
#507614
05
0'
#507709
19
1+
#508673
16
1(
#510000
1$
0,
#510640
1=
#513585
1@
#513899
0B
#517107
07
0)
#517154
15
1'
#520000
1"
0#
0$
1,
#520670
1;
#520746
0=
#520796
0<
#524254
1C
#524457
0>
#524463
1A
#527820
18
1*
#527996
03
0%
#528986
06
0(
#530000
1$
0,
#530640
1=
#533564
0?
#533584
1>
#533885
0A
#537154
04
0&
#537161
13
1%
#538473
16
1(
#540000
1#
0$
1,
#540690
1<
#540746
0=
#544278
1B
#547521
17
1)
#550000
1$
0,
#550640
1=
#553564
0D
#553580
1?
#553878
1A
#553899
0B
#557107
07
0)
#557147
09
0+
#557206
14
1&
#558401
06
0(
#560000
1!
0"
0#
0$
1,
#560660
1:
#560746
0=
#560776
0;
#560796
0<
#563935
0?
#563952
1D
#564318
0A
#564333
1B
#564463
1?
#567569
19
1+
#567576
17
1)
#568906
16
1(
#570000
1$
0,
#570640
1=
#573878
1A
#573899
0B
#577107
07
0)
#578401
06
0(
#580000
1#
0$
1,
#580690
1<
#580746
0=
#584085
0A
#584086
0?
#584278
1B
#587521
17
1)
#587676
04
0&
#588673
16
1(
#590000
1$
0,
#590640
1=
#593580
1?
#593899
0B
#597107
07
0)
#597206
14
1&
#600000
1"
0#
0$
1,
#600670
1;
#600746
0=
#600796
0<
#603935
0?
#604463
1A
1?
#608986
06
0(
#610000
1$
0,
#610640
1=
#613564
0?
#613885
0A
#617154
04
0&
#618473
16
1(
#620000
1#
0$
1,
#620690
1<
#620746
0=
#624278
1B
#627521
17
1)
#630000
1$
0,
#630640
1=
#633564
0D
#633580
1?
#633878
1A
#633899
0B
#637107
07
0)
#637147
09
0+
#637206
14
1&
#638401
06
0(
#640000
0!
0"
0#
0$
1,
#640746
0=
#640766
0:
#640776
0;
#640796
0<
#643935
0?
#643952
1D
#644318
0A
#644333
1B
#644463
1?
#644628
0D
#647576
17
1)
#648906
16
1(
#650000
1$
0,
#650640
1=
#653568
0>
0C
#653878
1A
#653899
0B
#657095
08
0*
#657107
03
07
0%
0)
#658401
06
0(
#660000
1#
0$
1,
#660690
1<
#660746
0=
#663956
1>
#664083
0@
#664085
0A
#664092
1D
#664278
1B
#667521
17
1)
#667533
13
1%
#667614
05
0'
#667709
19
1+
#668673
16
1(
#670000
1$
0,
#670640
1=
#673585
1@
#673899
0B
#677107
07
0)
#677154
15
1'
#680000
1"
0#
0$
1,
#680670
1;
#680746
0=
#680796
0<
#684254
1C
#684457
0>
#684463
1A
#687820
18
1*
#687996
03
0%
#688986
06
0(
#690000
1$
0,
#690640
1=
#693564
0?
#693584
1>
#693885
0A
#697154
04
0&
#697161
13
1%
#698473
16
1(
#700000
1#
0$
1,
#700690
1<
#700746
0=
#704278
1B
#707521
17
1)
#710000
1$
0,
#710640
1=
#713564
0D
#713580
1?
#713878
1A
#713899
0B
#717107
07
0)
#717147
09
0+
#717206
14
1&
#718401
06
0(
#720000
1!
0"
0#
0$
1,
#720660
1:
#720746
0=
#720776
0;
#720796
0<
#723935
0?
#723952
1D
#724318
0A
#724333
1B
#724463
1?
#727569
19
1+
#727576
17
1)
#728906
16
1(
#730000
1$
0,
#730640
1=
#733878
1A
#733899
0B
#737107
07
0)
#738401
06
0(
#740000
1#
0$
1,
#740690
1<
#740746
0=
#744085
0A
#744086
0?
#744278
1B
#747521
17
1)
#747676
04
0&
#748673
16
1(
#750000
1$
0,
#750640
1=
#753580
1?
#753899
0B
#757107
07
0)
#757206
14
1&
#760000
1"
0#
0$
1,
#760670
1;
#760746
0=
#760796
0<
#763935
0?
#764463
1A
1?
#768986
06
0(
#770000
1$
0,
#770640
1=
#773564
0?
#773885
0A
#777154
04
0&
#778473
16
1(
#780000
1#
0$
1,
#780690
1<
#780746
0=
#784278
1B
#787521
17
1)
#790000
1$
0,
#790640
1=
#793564
0D
#793580
1?
#793878
1A
#793899
0B
#797107
07
0)
#797147
09
0+
#797206
14
1&
#798401
06
0(
#800000
0!
0"
0#
0$
1,
#800746
0=
#800766
0:
#800776
0;
#800796
0<
#803935
0?
#803952
1D
#804318
0A
#804333
1B
#804463
1?
#804628
0D
#807576
17
1)
#808906
16
1(
#810000
1$
0,
#810640
1=
#813568
0>
0C
#813878
1A
#813899
0B
#817095
08
0*
#817107
03
07
0%
0)
#818401
06
0(
#820000
1#
0$
1,
#820690
1<
#820746
0=
#823956
1>
#824083
0@
#824085
0A
#824092
1D
#824278
1B
#827521
17
1)
#827533
13
1%
#827614
05
0'
#827709
19
1+
#828673
16
1(
#830000
1$
0,
#830640
1=
#833585
1@
#833899
0B
#837107
07
0)
#837154
15
1'
#840000
1"
0#
0$
1,
#840670
1;
#840746
0=
#840796
0<
#844254
1C
#844457
0>
#844463
1A
#847820
18
1*
#847996
03
0%
#848986
06
0(
#850000
1$
0,
#850640
1=
#853564
0?
#853584
1>
#853885
0A
#857154
04
0&
#857161
13
1%
#858473
16
1(
#860000
1#
0$
1,
#860690
1<
#860746
0=
#864278
1B
#867521
17
1)
#870000
1$
0,
#870640
1=
#873564
0D
#873580
1?
#873878
1A
#873899
0B
#877107
07
0)
#877147
09
0+
#877206
14
1&
#878401
06
0(
#880000
1!
0"
0#
0$
1,
#880660
1:
#880746
0=
#880776
0;
#880796
0<
#883935
0?
#883952
1D
#884318
0A
#884333
1B
#884463
1?
#887569
19
1+
#887576
17
1)
#888906
16
1(
#890000
1$
0,
#890640
1=
#893878
1A
#893899
0B
#897107
07
0)
#898401
06
0(
#900000
1#
0$
1,
#900690
1<
#900746
0=
#904085
0A
#904086
0?
#904278
1B
#907521
17
1)
#907676
04
0&
#908673
16
1(
#910000
1$
0,
#910640
1=
#913580
1?
#913899
0B
#917107
07
0)
#917206
14
1&
#920000
1"
0#
0$
1,
#920670
1;
#920746
0=
#920796
0<
#923935
0?
#924463
1A
1?
#928986
06
0(
#930000
1$
0,
#930640
1=
#933564
0?
#933885
0A
#937154
04
0&
#938473
16
1(
#940000
1#
0$
1,
#940690
1<
#940746
0=
#944278
1B
#947521
17
1)
#950000
1$
0,
#950640
1=
#953564
0D
#953580
1?
#953878
1A
#953899
0B
#957107
07
0)
#957147
09
0+
#957206
14
1&
#958401
06
0(
#960000
0!
0"
0#
0$
1,
#960746
0=
#960766
0:
#960776
0;
#960796
0<
#963935
0?
#963952
1D
#964318
0A
#964333
1B
#964463
1?
#964628
0D
#967576
17
1)
#968906
16
1(
#970000
1$
0,
#970640
1=
#973568
0>
0C
#973878
1A
#973899
0B
#977095
08
0*
#977107
03
07
0%
0)
#978401
06
0(
#980000
1#
0$
1,
#980690
1<
#980746
0=
#983956
1>
#984083
0@
#984085
0A
#984092
1D
#984278
1B
#987521
17
1)
#987533
13
1%
#987614
05
0'
#987709
19
1+
#988673
16
1(
#990000
1$
0,
#990640
1=
#993585
1@
#993899
0B
#997107
07
0)
#997154
15
1'
