2022_Dec_Digital_Logic_project/newfulladder/simulation/qsim/newfulladder.msim.vcd
$comment
	File created using the following command:
		vcd file newfulladder.msim.vcd -direction
$end
$date
	Tue Mar 14 00:07:27 2023
$end
$version
	ModelSim Version 10.1d
$end
$timescale
	1ps
$end
$scope module newfulladder_vlg_vec_tst $end
$var reg 1 ! B1 $end
$var reg 1 " B2 $end
$var reg 1 # B3 $end
$var reg 1 $ B4 $end
$var reg 1 % D1 $end
$var reg 1 & D2 $end
$var reg 1 ' D3 $end
$var reg 1 ( D4 $end
$var wire 1 ) C4 $end
$var wire 1 * O1 $end
$var wire 1 + O2 $end
$var wire 1 , O3 $end
$var wire 1 - O4 $end
$var wire 1 . sampler $end
$scope module i1 $end
$var wire 1 / gnd $end
$var wire 1 0 vcc $end
$var wire 1 1 unknown $end
$var tri1 1 2 devclrn $end
$var tri1 1 3 devpor $end
$var tri1 1 4 devoe $end
$var wire 1 5 C4~output_o $end
$var wire 1 6 O4~output_o $end
$var wire 1 7 O3~output_o $end
$var wire 1 8 O2~output_o $end
$var wire 1 9 O1~output_o $end
$var wire 1 : D2~input_o $end
$var wire 1 ; B2~input_o $end
$var wire 1 < B1~input_o $end
$var wire 1 = D1~input_o $end
$var wire 1 > 2~0_combout $end
$var wire 1 ? D3~input_o $end
$var wire 1 @ B3~input_o $end
$var wire 1 A 2~1_combout $end
$var wire 1 B D4~input_o $end
$var wire 1 C B4~input_o $end
$var wire 1 D 2~2_combout $end
$var wire 1 E 45~0_combout $end
$var wire 1 F 51~0_combout $end
$var wire 1 G 44~combout $end
$var wire 1 H 43~0_combout $end
$var wire 1 I 27~0_combout $end
$upscope $end
$upscope $end
$enddefinitions $end
#0
$dumpvars
0!
1"
0#
1$
1%
1&
1'
1(
x)
x*
x+
x,
x-
x.
0/
10
x1
12
13
14
x5
x6
x7
x8
x9
1:
1;
0<
1=
x>
1?
0@
xA
1B
1C
xD
xE
xF
xG
xH
xI
$end
#3617
1>
#3649
0F
#3695
1D
#4018
0H
#4019
1I
#4165
1A
#4255
1G
#4756
1E
#5000
0"
0%
0&
0(
0.
#5681
0B
0:
0;
#5691
0=
#7114
19
1*
#7338
15
1)
#7738
08
0+
#8606
16
1-
#8610
07
0,
#9346
0I
#9420
0E
#9439
1F
#9443
0>
#10000
1!
0$
0'
1.
#10020
0G
#10024
0A
#10517
1<
#10650
0D
#10653
1E
#10691
0?
0C
#12318
09
0*
#14205
05
0)
#14287
1I
#14309
17
1,
#14501
1G
#14639
0E
#15000
1#
1%
1(
0!
0.
#15507
1B
1@
#15517
1=
#15691
0<
#17382
19
1*
#18429
06
0-
#18856
07
0,
#18914
0I
#18924
1H
#18989
1E
#19056
0G
#19709
0H
#19710
1I
#20000
1&
1$
1!
1.
#20507
1:
#20517
1<
1C
#22839
16
1-
#23345
17
1,
#23998
1H
#24203
0E
#24212
1D
#24282
0F
#24285
0I
#24286
0H
#24288
1>
#24836
1A
#24888
1G
#25000
0%
0.
#25427
1E
#25691
0=
#27257
09
0*
#27855
15
1)
#29243
07
0,
#29349
0>
#29353
1F
#29356
1H
1I
#29930
0A
#29934
0G
#30000
0(
0&
0$
1%
1.
#30517
1=
#30564
0E
#30681
0:
0B
#30691
0C
#32451
19
1*
#33209
18
1+
#33911
0F
#33914
0H
0I
#33926
1>
#34223
17
1,
#34354
06
0-
#34408
0D
#34421
1E
#34439
1F
#34443
0>
#34444
1H
#34474
1A
#34517
1G
#34639
0E
#35000
1"
1(
1$
0%
0.
#35020
0G
#35024
0A
#35065
1E
#35507
1B
1;
#35517
1C
#35658
0E
#35691
0=
#36886
09
0*
#37963
05
0)
#38989
1E
#39124
1>
#39156
0F
#39158
0H
#39203
0E
#39212
1D
#39349
0>
#39353
1F
#39356
1H
1I
#40000
1'
0!
1&
0$
1%
1.
#40507
1:
#40517
1=
1?
#40691
0C
0<
#42451
19
1*
#42855
15
1)
#43914
0I
#43969
1>
#43999
0F
#44073
1G
1A
#44613
0G
#44709
0H
#44710
1I
#45000
0"
0(
0'
1!
0&
0.
#45517
1<
#45681
0:
0B
0;
#45691
0?
#48429
08
0+
#49285
0I
#49408
0D
#49421
1E
#49501
1G
#49573
0>
#49580
1F
#49583
1H
#50000
1$
0%
0!
1.
#50154
0A
#50161
0G
#50517
1C
#50691
0<
0=
#50788
0E
#52257
09
0*
#52963
05
0)
#53436
18
1+
#54213
1E
#54346
0H
#54356
1I
#54708
0I
#55000
0#
1(
1!
0.
#55507
1B
#55517
1<
#55681
0@
#58063
16
1-
#58066
08
0+
#58951
1D
#58988
0E
#59287
1I
#59514
1G
#60000
1"
1%
1#
0!
1.
#60507
1@
1;
#60517
1=
#60691
0<
#62382
19
1*
#62594
15
1)
#62778
06
0-
#63869
07
0,
#63911
0F
#63914
0I
#63926
1>
#64056
0G
#64474
1A
#64517
1G
#64704
1F
#64708
1H
#64710
1I
#64712
0>
#65000
1'
0$
0(
0%
0.
#65065
1E
#65285
0G
#65293
0A
#65517
1?
#65681
0B
#65691
0=
0C
#65927
0E
#68561
18
1+
#69073
1G
1A
#69346
0I
#69574
17
1,
#69638
0D
#69649
1E
#70000
1!
1$
1.
#70517
1C
1<
#72318
09
0*
#73193
05
0)
#73428
07
0,
#73499
16
1-
#74203
0E
#74212
1D
#74287
1I
#75000
1&
0"
0#
0'
0$
0.
#75507
1:
#75681
0@
0;
#75691
0C
0?
#77382
19
1*
#77855
15
1)
#77993
06
0-
#78969
1>
#78999
0F
#79003
0H
#79504
0G
#79505
0A
#79573
0>
#79580
1F
#79583
1H
#79638
0D
#79649
1E
#80000
1%
1"
1.
#80139
0E
#80153
1G
#80507
1;
#80517
1=
#83193
05
0)
#83914
0I
#84124
1>
#84156
0F
#84770
0G
#85000
1$
0"
0.
#85517
1C
#85681
0;
#86886
09
0*
#89059
17
1,
#89213
1E
#89582
0H
#90000
1'
1.
#90517
1?
#93063
16
1-
#93302
08
0+
#94073
1G
1A
#94633
1D
#94669
0E
#95000
1(
0&
0%
0$
1"
0'
0.
#95507
1;
1B
#95681
0:
#95691
0?
0C
0=
#98276
15
1)
#98428
07
0,
#98459
06
0-
#98989
1E
#99349
0>
#99353
1F
#99356
1H
1I
#99499
0A
#99500
0G
#99639
0E
#99926
1G
#100000
0(
1%
1$
1'
1.
#100125
0D
#100128
1E
#100517
1?
1C
1=
#100681
0B
#102451
19
1*
#103209
18
1+
#103680
05
0)
#103911
0F
#103914
0H
0I
#103926
1>
#103978
16
1-
#104072
0G
#104474
1A
#104517
1G
#105000
0!
1(
0$
0'
0.
#105034
1D
#105070
0E
#105507
1B
#105691
0?
0C
0<
#106886
09
0*
#107634
08
0+
#108677
15
1)
#108860
06
0-
#108989
1E
#109499
0A
#109500
0G
#109639
0E
#109704
1F
#109708
1H
#109710
1I
#109712
0>
#110000
0(
1.
#110125
0D
#110128
1E
#110277
1G
#110681
0B
#112805
19
1*
#113561
18
1+
#113680
05
0)
#113978
16
1-
#114420
0E
#115000
1#
1&
0"
1!
1$
0.
#115507
1:
1@
#115517
1C
1<
#115681
0;
#118210
06
0-
#118969
1>
#118999
0F
#119003
0H
#119056
0G
#119213
1E
#119285
0I
#119517
1A
#119605
1G
#120000
0%
0&
1"
1.
#120077
1D
#120113
0E
#120507
1;
#120681
0:
#120691
0=
#122257
09
0*
#122723
08
0+
#123720
15
1)
#124349
0>
#124353
1F
#124356
1H
1I
#124930
0A
#124934
0G
#125000
0#
1%
0"
0.
#125517
1=
#125556
0D
#125559
1E
#125681
0;
0@
#127451
19
1*
#128209
18
1+
#128911
0F
#128914
0H
0I
#128926
1>
#129111
05
0)
#129223
17
1,
#129409
16
1-
#129573
0>
#129580
1F
#129583
1H
#130000
1(
0!
0$
1#
1"
1.
#130153
1G
#130507
1;
1@
1B
#130691
0C
0<
#131886
09
0*
#133951
1D
#133988
0E
#134056
0G
#134124
1>
#134156
0F
#134158
0H
#134508
07
0,
#134638
0D
#134649
1E
#134672
1A
#134704
1F
#134708
1H
#134710
1I
#134712
0>
#134762
1G
#135000
0%
1!
1$
0.
#135232
1D
#135268
0E
#135285
0G
#135293
0A
#135517
1C
1<
#135691
0=
#135919
0D
#135922
1E
#137805
19
1*
#139203
0E
#139212
1D
#139574
17
1,
#140000
1'
0#
1%
0$
1.
#140517
1=
1?
#140681
0@
#140691
0C
#142855
15
1)
#142993
06
0-
#143911
0F
#143914
0H
0I
#143926
1>
#144073
1G
1A
#145000
1&
0(
0"
0!
0'
1#
0.
#145507
1@
1:
#145681
0;
0B
#145691
0?
0<
#146886
09
0*
#147634
08
0+
#148428
07
0,
#148998
1H
#149056
0G
#149408
0D
#149421
1E
#149501
1G
#149704
1F
#149710
1I
#149712
0>
#150000
0%
1(
1!
1'
0#
1.
#150285
0G
#150293
0A
#150507
1B
#150517
1?
1<
#150681
0@
#150691
0=
#150927
0E
#152805
19
1*
#152851
18
1+
#152963
05
0)
#153989
1E
#154073
1G
1A
#154504
0G
#154505
0A
#154574
17
1,
#154633
1D
#154669
0E
#155000
1$
1"
0(
0'
1#
0.
#155131
0D
#155134
1E
#155507
1@
1;
#155517
1C
#155681
0B
#155691
0?
#158984
16
1-
#159066
1G
1A
#159124
1>
#159156
0F
#159158
0H
#159626
1D
#159662
0E
#160000
1%
0$
0"
1(
1'
1.
#160507
1B
#160517
1?
1=
#160681
0;
#160691
0C
#162878
08
0+
#163269
15
1)
#163421
07
0,
#163452
06
0-
#163914
0I
#163924
1H
#163989
1E
#164072
0G
#164582
0H
#164639
0E
#165000
0&
0!
0#
0%
1$
0(
0'
0.
#165517
1C
#165681
0B
0@
0:
#165691
0?
0=
0<
#166886
09
0*
#168361
17
1,
#169356
1I
#169439
1F
#169443
0>
#169505
0A
#169708
0I
#170000
1&
1!
1%
0$
1.
#170012
1G
#170131
0D
#170134
1E
#170507
1:
#170517
1=
1<
#170691
0C
#173686
05
0)
#173924
1I
#173984
16
1-
#173998
1H
#174282
0F
#174285
0I
#174286
0H
#174288
1>
#174367
07
0,
#174639
0E
#174896
0G
#175000
1'
0&
0!
0%
0.
#175517
1?
#175681
0:
#175691
0=
0<
#178429
06
0-
#179073
1G
1A
#179185
17
1,
#179356
1I
#179439
1F
#179443
0>
#179664
1E
#179708
0I
#180000
1"
0'
1&
1.
#180020
0G
#180024
0A
#180507
1:
1;
#180658
0E
#180691
0?
#184124
1>
#184156
0F
#185000
1#
1!
0"
0.
#185507
1@
#185517
1<
#185681
0;
#189066
1G
1A
#189287
1I
#189573
0>
#189580
1F
#189583
1H
#189657
1E
#190000
1$
1'
0!
1.
#190154
0A
#190161
0G
#190517
1?
1C
#190691
0<
#190788
0E
#192382
19
1*
#193436
18
1+
#194073
1G
1A
#194213
1E
#194633
1D
#194669
0E
#194708
0I
#195000
1%
0&
0#
1"
0'
1!
0.
#195507
1;
#195517
1<
1=
#195681
0@
0:
#195691
0?
#197680
09
0*
#198276
15
1)
#198428
07
0,
#198924
1I
#199124
1>
#199156
0F
#199285
0I
#199449
0H
#199505
0A
#199770
0G
#200000
0%
1#
0"
1.
#200131
0D
#200134
1E
#200507
1@
#200681
0;
#200691
0=
#203169
08
0+
#203686
05
0)
#203984
16
1-
#204059
17
1,
#204066
1G
1A
#204356
1I
#204573
0>
#204580
1F
#204626
1D
#204662
0E
#205000
1(
1&
1'
0#
0.
#205154
0A
#205161
0G
#205507
1:
1B
#205517
1?
#205681
0@
#205780
0D
#205783
1E
#207451
19
1*
#208951
1D
#208988
0E
#208998
1H
#209073
1G
1A
#209504
0G
#209505
0A
#209664
1E
#210000
0$
1%
1"
0'
1.
#210139
0E
#210507
1;
#210517
1=
#210691
0?
0C
#212594
15
1)
#212851
18
1+
#213914
0I
#213929
06
0-
#214124
1>
#214156
0F
#214638
0D
#214649
1E
#215000
0(
1#
0%
1'
0.
#215507
1@
#215517
1?
#215681
0B
#215691
0=
#216886
09
0*
#218193
05
0)
#218499
16
1-
#219073
1A
#219346
0H
#219356
1I
#220000
0"
0'
1.
#220681
0;
#220691
0?
#222451
19
1*
#223066
08
0+
#224501
1G
#224573
0>
#224580
1F
#224583
1H
#225000
1$
1(
0#
1%
1'
0.
#225154
0A
#225161
0G
#225507
1B
#225517
1?
1=
1C
#225681
0@
#225788
0E
#228436
18
1+
#228911
0F
#228914
0H
0I
#228926
1>
#228989
1E
#229073
1G
1A
#229203
0E
#229212
1D
#229578
06
0-
#229664
1E
#230000
1"
0(
1#
0%
0'
1.
#230507
1@
1;
#230681
0B
#230691
0?
0=
#231886
09
0*
#232634
08
0+
#232855
15
1)
#233428
07
0,
#233514
16
1-
#234056
0G
#234159
1H
#234346
0H
#234356
1I
#234420
0E
#234501
1G
#235000
0#
0.
#235681
0@
#237451
19
1*
#238210
06
0-
#239504
0G
#239505
0A
#240000
0!
0&
0$
0"
1'
1#
1.
#240131
0D
#240134
1E
#240507
1@
#240517
1?
#240681
0;
0:
#240691
0C
0<
#243686
05
0)
#243793
17
1,
#243984
16
1-
#244073
1A
#244439
1F
#244443
0>
#244708
0I
#245000
1&
0.
#245012
1G
#245507
1:
#247680
09
0*
#248998
1H
#249367
07
0,
#250000
1(
1%
1!
1$
1.
#250507
1B
#250517
1C
1<
1=
#252851
18
1+
#253924
1I
#253951
1D
#253988
0E
#254213
1E
#254282
0F
#254285
0I
#254286
0H
#254288
1>
#254896
0G
#255000
0#
0(
0.
#255681
0B
0@
#257594
15
1)
#258006
08
0+
#259185
17
1,
#259420
0E
#259514
1G
#260000
1"
0'
0&
0!
0$
1#
1(
1.
#260507
1B
1@
1;
#260681
0:
#260691
0C
0<
0?
#263210
06
0-
#263869
07
0,
#263989
1E
#264056
0G
#264501
1G
#264639
0E
#264704
1F
#264708
1H
#264710
1I
#264712
0>
#265000
0"
1'
1&
1!
0(
0.
#265285
0G
#265293
0A
#265507
1:
#265517
1<
1?
#265681
0B
0;
#265919
0D
#265922
1E
#267805
19
1*
#268561
18
1+
#268969
1>
#268999
0F
#269003
0H
#269073
1G
1A
#269285
0I
#269474
05
0)
#269574
17
1,
#269613
0G
#269772
16
1-
#270000
1$
0&
0!
1.
#270517
1C
#270681
0:
#270691
0<
#272257
09
0*
#272723
08
0+
#274203
0E
#274212
1D
#274439
1F
#274443
0>
#274444
1H
#274709
0H
#274710
1I
#275000
0#
1"
0'
0$
1&
0.
#275012
1G
#275507
1:
1;
#275681
0@
#275691
0C
0?
#277805
19
1*
#277855
15
1)
#277993
06
0-
#279124
1>
#279156
0F
#279367
07
0,
#279505
0A
#279638
0D
#279649
1E
#279770
0G
#280000
0%
1(
1!
1#
0"
1'
1$
0&
1.
#280139
0E
#280507
1@
1B
#280517
1C
1?
1<
#280681
0:
0;
#280691
0=
#283193
05
0)
#283989
1E
#284059
17
1,
#284073
1A
#284203
0E
#284212
1D
#284573
0>
#284580
1F
#284664
1E
#285000
0!
0#
1"
1&
0.
#285153
1G
#285507
1:
1;
#285681
0@
#285691
0<
#287855
15
1)
#288514
16
1-
#289124
1>
#289156
0F
#289508
07
0,
#289708
0I
#290000
0(
0'
0$
0&
1.
#290681
0:
0B
#290691
0C
0?
#292680
09
0*
#294420
0E
#294439
1F
#294443
0>
#294444
1H
#294499
0A
#294500
0G
#294638
0D
#294649
1E
#295000
1%
1$
1&
0.
#295012
1G
#295133
0E
#295507
1:
#295517
1C
1=
#298193
05
0)
#298297
18
1+
#298923
06
0-
#298924
1I
#298969
1>
#298999
0F
#299003
0H
#299213
1E
#299613
0G
#300000
1#
1.
#300507
1@
#302019
19
1*
#302723
08
0+
#303063
16
1-
#303902
17
1,
#304066
1G
1A
#304626
1D
#304662
0E
#305000
1(
0%
0#
0.
#305507
1B
#305681
0@
#305691
0=
#308269
15
1)
#308421
07
0,
#308452
06
0-
#308989
1E
#309346
0I
#309504
0G
#309505
0A
#310000
1'
0$
0&
1%
1.
#310139
0E
#310517
1=
1?
#310681
0:
#310691
0C
#312318
09
0*
#313793
17
1,
#313924
1I
#314073
1G
1A
#314439
1F
#314443
0>
#314444
1H
#315000
1!
0"
0%
0.
#315020
0G
#315024
0A
#315517
1<
#315650
0D
#315653
1E
#315681
0;
#315691
0=
#317019
19
1*
#318297
18
1+
#319205
05
0)
#319346
0H
#319503
16
1-
#320000
1#
1$
0!
1.
#320507
1@
#320517
1C
#320691
0<
#323066
08
0+
#324066
1G
1A
#324203
0E
#324212
1D
#324657
1E
#324708
0I
#325000
0(
1&
0$
1!
0.
#325507
1:
#325517
1<
#325681
0B
#325691
0C
#327680
09
0*
#327855
15
1)
#328421
07
0,
#328998
1H
#329287
1I
#329420
0E
#329638
0D
#329649
1E
#330000
1"
1(
0!
1.
#330507
1B
1;
#330691
0<
#332382
19
1*
#332851
18
1+
#333193
05
0)
#333951
1D
#333988
0E
#334124
1>
#334156
0F
#334158
0H
#334708
0I
#334770
0G
#335000
1%
0&
1$
1!
0.
#335517
1<
1C
1=
#335681
0:
#337594
15
1)
#337680
09
0*
#337778
06
0-
#337878
08
0+
#338924
1I
#339059
17
1,
#339213
1E
#339285
0I
#340000
0'
0"
0(
1&
0!
1.
#340507
1:
#340681
0B
0;
#340691
0<
0?
#343063
16
1-
#343998
1H
#344420
0E
#344501
1G
#344704
1F
#344710
1I
#344712
0>
#345000
0$
1"
1(
0&
1!
0.
#345285
0G
#345293
0A
#345507
1B
1;
#345517
1<
#345681
0:
#345691
0C
#345919
0D
#345922
1E
#347805
19
1*
#347851
18
1+
#348951
1D
#348988
0E
#349124
1>
#349156
0F
#349285
0I
#349449
0H
#349474
05
0)
#349638
0D
#349649
1E
#349672
1A
#349762
1G
#350000
0#
0!
1.
#350232
1D
#350268
0E
#350681
0@
#350691
0<
#352257
09
0*
#353169
08
0+
#353875
15
1)
#354058
06
0-
#354117
07
0,
#354504
0G
#354505
0A
#354704
1F
#354708
1H
#354710
1I
#354712
0>
#355000
0%
1'
0(
1!
0.
#355131
0D
#355134
1E
#355277
1G
#355517
1<
1?
#355681
0B
#355691
0=
#357805
19
1*
#358561
18
1+
#358686
05
0)
#358984
16
1-
#359072
0G
#359420
0E
#360000
0"
1#
0'
1.
#360507
1@
#360681
0;
#360691
0?
#363210
06
0-
#363361
17
1,
#364066
1G
1A
#364499
0A
#364500
0G
#364582
0H
#364657
1E
#365000
1$
1&
1%
1(
0#
1'
0.
#365133
0E
#365507
1B
1:
#365517
1?
1=
1C
#365681
0@
#368302
08
0+
#368911
0F
#368914
0I
#368926
1>
#368989
1E
#369073
1G
1A
#369203
0E
#369212
1D
#369664
1E
#370000
0!
0$
1#
1.
#370507
1@
#370691
0C
0<
#371886
09
0*
#372855
15
1)
#373428
07
0,
#373514
16
1-
#374056
0G
#374639
0E
#374704
1F
#374708
1H
#374710
1I
#374712
0>
#375000
1"
0&
0%
0'
1!
0.
#375277
1G
#375507
1;
#375517
1<
#375681
0:
#375691
0?
0=
#377805
19
1*
#378429
06
0-
#378561
18
1+
#379124
1>
#379156
0F
#379349
0>
#379353
1F
#379500
0G
#379930
0A
#380000
0"
1&
1'
0!
1.
#380507
1:
#380517
1?
#380556
0D
#380559
1E
#380681
0;
#380691
0<
#383789
17
1,
#383969
1>
#383999
0F
#384003
0H
#384073
1G
1A
#384111
05
0)
#384409
16
1-
#384573
0>
#384580
1F
#384583
1H
#384613
0G
#384633
1D
#384669
0E
#384708
0I
#385000
0#
1%
0&
0.
#385153
1G
#385517
1=
#385681
0:
0@
#387680
09
0*
#388276
15
1)
#388459
06
0-
#388924
1I
#389449
0H
#389504
0G
#389505
0A
#389508
07
0,
#390000
1"
1!
1#
0%
1.
#390131
0D
#390134
1E
#390507
1@
1;
#390517
1<
#390691
0=
#392019
19
1*
#393169
08
0+
#393686
05
0)
#393793
17
1,
#393984
16
1-
#394066
1G
1A
#394356
1H
#394626
1D
#394662
0E
#395000
0(
0!
0.
#395681
0B
#395691
0<
#398209
18
1+
#398269
15
1)
#398421
07
0,
#398452
06
0-
#399408
0D
#399421
1E
#399708
0I
#400000
1$
0'
1&
0#
1%
1(
1.
#400507
1B
1:
#400517
1=
1C
#400681
0@
#400691
0?
#402680
09
0*
#402963
05
0)
#403271
16
1-
#403924
1I
#403951
1D
#403969
1>
#403988
0E
#403999
0F
#404003
0H
#404213
1E
#404504
0G
#404505
0A
#405000
0"
1'
0.
#405139
0E
#405517
1?
#405681
0;
#407019
19
1*
#407594
15
1)
#407723
08
0+
#408793
17
1,
#408929
06
0-
#409073
1G
1A
#409573
0>
#409580
1F
#409583
1H
#409664
1E
#410000
1!
0&
1"
1.
#410154
0A
#410161
0G
#410507
1;
#410517
1<
#410681
0:
#410788
0E
#413436
18
1+
#414124
1>
#414156
0F
#414285
0I
#414449
0H
#414672
1A
#414762
1G
#415000
0$
0(
0"
0.
#415263
1E
#415681
0;
0B
#415691
0C
#417257
09
0*
#418169
08
0+
#419113
16
1-
#419117
07
0,
#419420
0E
#419573
0>
#419580
1F
#419583
1H
#419638
0D
#419649
1E
#420000
0!
1&
1$
1(
1"
1.
#420154
0A
#420161
0G
#420507
1;
1B
1:
#420517
1C
#420691
0<
#420788
0E
#423193
05
0)
#423436
18
1+
#423969
1>
#423989
1E
#423999
0F
#424203
0E
#424212
1D
#424450
17
1,
#424517
1A
#424578
06
0-
#424605
1G
#424709
0H
#424710
1I
#425000
1#
0'
1!
0&
0(
0.
#425108
1E
#425507
1@
#425517
1<
#425681
0B
0:
#425691
0?
#427805
19
1*
#427855
15
1)
#428429
08
0+
#428958
16
1-
#428960
07
0,
#429056
0G
#429285
0I
#429420
0E
#429501
1G
#430000
0$
0#
1'
1(
1.
#430507
1B
#430517
1?
#430681
0@
#430691
0C
#432257
09
0*
#433210
06
0-
#433989
1E
#434072
0G
#434514
1G
#434639
0E
#435000
0!
1$
1#
0'
0.
#435507
1@
#435517
1C
#435691
0?
0<
#439056
0G
#439213
1E
#439501
1G
#439704
1F
#439708
1H
#439710
1I
#439712
0>
#440000
0"
1&
0$
0#
1.
#440285
0G
#440293
0A
#440507
1:
#440681
0@
0;
#440691
0C
#440927
0E
#442805
19
1*
#443561
18
1+
#443969
1>
#443999
0F
#444003
0H
#444573
0>
#444574
17
1,
#444580
1F
#444583
1H
#444638
0D
#444649
1E
#445000
1'
0&
1#
0.
#445153
1G
#445507
1@
#445517
1?
#445681
0:
#448193
05
0)
#448499
16
1-
#449066
1A
#449449
0H
#449508
07
0,
#449626
1D
#449662
0E
#450000
0%
1!
1"
1$
1&
1.
#450507
1:
1;
#450517
1C
1<
#450691
0=
#453169
08
0+
#453269
15
1)
#453452
06
0-
#454124
1>
#454156
0F
#454213
1E
#454770
0G
#455000
0(
0#
0!
0"
0$
0.
#455681
0;
0@
0B
#455691
0C
0<
#458063
16
1-
#459059
17
1,
#459420
0E
#459514
1G
#459573
0>
#459580
1F
#459583
1H
#459638
0D
#459649
1E
#459708
0I
#460000
0'
1%
1#
1$
1.
#460154
0A
#460161
0G
#460507
1@
#460517
1C
1=
#460691
0?
#460788
0E
#462680
09
0*
#463193
05
0)
#463436
18
1+
#463924
1I
#464066
1G
1A
#464213
1E
#464499
0A
#464500
0G
#464578
06
0-
#464626
1D
#464662
0E
#465000
0&
1!
1"
1'
0.
#465125
0D
#465128
1E
#465507
1;
#465517
1?
1<
#465681
0:
#467019
19
1*
#468978
16
1-
#469073
1G
1A
#469124
1>
#469156
0F
#469285
0I
#469449
0H
#469633
1D
#469669
0E
#469770
0G
#470000
1(
0$
1&
0"
1.
#470507
1:
1B
#470681
0;
#470691
0C
#472257
09
0*
#473169
08
0+
#473276
15
1)
#473459
06
0-
#473989
1E
#473998
1H
#474582
0H
#474639
0E
#475000
0%
0#
0'
1$
0.
#475517
1C
#475681
0@
#475691
0?
0=
#479213
1E
#479349
0>
#479353
1F
#479356
1H
1I
#479505
0A
#479926
1G
#480000
0!
0(
1'
1.
#480139
0E
#480517
1?
#480681
0B
#480691
0<
#482451
19
1*
#483209
18
1+
#484072
0G
#484281
07
0,
#484408
0D
#484421
1E
#484708
0I
#485000
1#
1!
1(
0.
#485507
1B
1@
#485517
1<
#487680
09
0*
#487963
05
0)
#488271
16
1-
#488361
17
1,
#488951
1D
#488988
0E
#489066
1G
1A
#489287
1I
#489657
1E
#490000
1"
0(
1.
#490507
1;
#490681
0B
#492382
19
1*
#492594
15
1)
#493421
07
0,
#494124
1>
#494156
0F
#494158
0H
#494420
0E
#494770
0G
#495000
0&
1%
0$
0'
0#
0"
0.
#495517
1=
#495681
0;
0@
0:
#495691
0?
0C
#497878
08
0+
#498210
06
0-
#498914
0I
#498924
1H
#499059
17
1,
#499505
0A
#499573
0>
#499580
1F
#499638
0D
#499649
1E
#500000
1(
1$
1.
#500139
0E
#500153
1G
#500507
1B
#500517
1C
#501886
09
0*
#502777
18
1+
#503193
05
0)
#503989
1E
#504203
0E
#504212
1D
#504508
07
0,
#505000
0!
1#
1"
0$
0.
#505507
1;
1@
#505691
0C
0<
#507855
15
1)
#509056
0G
#509124
1>
#509156
0F
#509158
0H
#509638
0D
#509649
1E
#509672
1A
#509704
1F
#509708
1H
#509710
1I
#509712
0>
#509762
1G
#510000
1&
1.
#510232
1D
#510268
0E
#510285
0G
#510293
0A
#510507
1:
#510919
0D
#510922
1E
#512805
19
1*
#513969
1>
#513999
0F
#514003
0H
#514474
05
0)
#514517
1A
#514574
17
1,
#514605
1G
#514772
16
1-
#515000
0%
1'
0(
0"
0.
#515077
1D
#515113
0E
#515517
1?
#515681
0;
0B
#515691
0=
#517723
08
0+
#518720
15
1)
#518903
06
0-
#518960
07
0,
#519072
0G
#519346
0I
#519408
0D
#519421
1E
#519573
0>
#519580
1F
#519583
1H
#520000
1!
1$
0&
1%
1(
1"
1.
#520153
1G
#520507
1;
1B
#520517
1=
1C
1<
#520681
0:
#522318
09
0*
#522963
05
0)
#523271
16
1-
#523436
18
1+
#523924
1I
#523951
1D
#523988
0E
#524124
1>
#524156
0F
#524213
1E
#524285
0I
#524449
0H
#524770
0G
#525000
0'
0!
0%
0"
0.
#525681
0;
#525691
0=
0<
0?
#527594
15
1)
#528169
08
0+
#529059
17
1,
#529356
1I
#529501
1G
#529573
0>
#529580
1F
#529708
0I
#530000
0#
1&
1%
1.
#530154
0A
#530161
0G
#530507
1:
#530517
1=
#530681
0@
#530788
0E
#533924
1I
#533998
1H
#534514
1G
#534578
06
0-
#535000
0$
1'
1"
1#
0&
0.
#535507
1@
1;
#535517
1?
#535681
0:
#535691
0C
#537019
19
1*
#537851
18
1+
#538869
07
0,
#539066
1A
#540000
1$
0'
0#
1&
1.
#540507
1:
#540517
1C
#540681
0@
#540691
0?
#543969
1>
#543999
0F
#544003
0H
#544213
1E
#544504
0G
#544505
0A
#545000
1#
0&
0.
#545139
0E
#545507
1@
#545681
0:
#547723
08
0+
#548793
17
1,
#549066
1G
1A
#549439
1F
#549443
0>
#549444
1H
#549657
1E
#550000
0(
0$
0#
1&
1.
#550020
0G
#550024
0A
#550507
1:
#550658
0E
#550681
0@
0B
#550691
0C
#553297
18
1+
#553969
1>
#553999
0F
#554003
0H
#554408
0D
#554421
1E
#554639
0E
#555000
1!
0"
1'
1(
1$
0.
#555507
1B
#555517
1C
1?
1<
#555681
0;
#557723
08
0+
#557963
05
0)
#558989
1E
#559073
1G
1A
#559203
0E
#559212
1D
#559285
0I
#559664
1E
#560000
1#
0&
0!
1"
0$
1.
#560507
1;
1@
#560681
0:
#560691
0C
0<
#562257
09
0*
#562855
15
1)
#563428
07
0,
#563514
16
1-
#564056
0G
#564639
0E
#564704
1F
#564708
1H
#564710
1I
#564712
0>
#565000
0'
0(
1!
0"
0.
#565277
1G
#565517
1<
#565681
0;
0B
#565691
0?
#567805
19
1*
#568429
06
0-
#568561
18
1+
#569285
0I
#569408
0D
#569421
1E
#569499
0A
#569500
0G
#570000
0%
0#
1.
#570133
0E
#570681
0@
#570691
0=
#572257
09
0*
#572963
05
0)
#573789
17
1,
#574346
0H
#574356
1I
#574514
1G
#575000
1(
0!
1"
1#
0.
#575507
1@
1;
1B
#575691
0<
#577451
19
1*
#578066
08
0+
#578869
07
0,
#578989
1E
#579056
0G
#579159
1H
#579708
0I
#580000
1&
1$
0#
1.
#580507
1:
#580517
1C
#580681
0@
#582680
09
0*
#582839
16
1-
#583012
18
1+
#583345
17
1,
#583969
1>
#583999
0F
#584003
0H
#584203
0E
#584212
1D
#585000
0(
0"
0.
#585681
0;
0B
#587723
08
0+
#587855
15
1)
#587993
06
0-
#589408
0D
#589421
1E
#589573
0>
#589580
1F
#589583
1H
#590000
1'
1!
0$
1#
1.
#590153
1G
#590507
1@
#590517
1<
1?
#590691
0C
#592963
05
0)
#593271
16
1-
#593436
18
1+
#594066
1A
#594287
1I
#594508
07
0,
#595000
1%
0&
1(
1"
0!
1$
0.
#595507
1;
1B
#595517
1C
1=
#595681
0:
#595691
0<
#597382
19
1*
#598914
0I
#598951
1D
#598988
0E
#599124
1>
#599156
0F
#599213
1E
#599449
0H
#599704
1F
#599708
1H
#599710
1I
#599712
0>
#599770
0G
#600000
0'
0(
1.
#600277
1G
#600681
0B
#600691
0?
#602594
15
1)
#604420
0E
#604499
0A
#604500
0G
#605000
0%
0"
0.
#605125
0D
#605128
1E
#605681
0;
#605691
0=
#608680
05
0)
#608789
17
1,
#609346
0I
#609582
0H
#610000
0#
1&
1.
#610507
1:
#610681
0@
#612318
09
0*
#613302
08
0+
#613998
1H
#614514
1G
#615000
0$
1'
0.
#615517
1?
#615691
0C
#617851
18
1+
#618869
07
0,
#619072
0G
#619639
0E
#620000
1!
1(
1%
0&
1$
1.
#620507
1B
#620517
1C
1=
1<
#620681
0:
#623361
17
1,
#623429
06
0-
#623924
1I
#623989
1E
#624203
0E
#624212
1D
#624285
0I
#625000
1"
1#
1&
0$
0.
