2022_Dec_Digital_Logic_project/binary_to_bcd_full/simulation/qsim/binary_to_bcd_full.msim.vcd
$comment
	File created using the following command:
		vcd file binary_to_bcd_full.msim.vcd -direction
$end
$date
	Tue Mar 14 13:57:24 2023
$end
$version
	ModelSim Version 10.1d
$end
$timescale
	1ps
$end
$scope module binary_to_bcd_full_vlg_vec_tst $end
$var reg 1 ! B0 $end
$var reg 1 " B1 $end
$var reg 1 # B2 $end
$var reg 1 $ B3 $end
$var reg 1 % B4 $end
$var reg 1 & B5 $end
$var reg 1 ' B6 $end
$var reg 1 ( B7 $end
$var wire 1 ) Y0 $end
$var wire 1 * Y1 $end
$var wire 1 + Y2 $end
$var wire 1 , Y3 $end
$var wire 1 - Y4 $end
$var wire 1 . Y5 $end
$var wire 1 / Y6 $end
$var wire 1 0 Y7 $end
$var wire 1 1 Y8 $end
$var wire 1 2 Y9 $end
$var wire 1 3 sampler $end
$scope module i1 $end
$var wire 1 4 gnd $end
$var wire 1 5 vcc $end
$var wire 1 6 unknown $end
$var tri1 1 7 devclrn $end
$var tri1 1 8 devpor $end
$var tri1 1 9 devoe $end
$var wire 1 : Y9~output_o $end
$var wire 1 ; Y8~output_o $end
$var wire 1 < Y7~output_o $end
$var wire 1 = Y6~output_o $end
$var wire 1 > Y5~output_o $end
$var wire 1 ? Y4~output_o $end
$var wire 1 @ Y3~output_o $end
$var wire 1 A Y2~output_o $end
$var wire 1 B Y1~output_o $end
$var wire 1 C Y0~output_o $end
$var wire 1 D B7~input_o $end
$var wire 1 E B6~input_o $end
$var wire 1 F B3~input_o $end
$var wire 1 G B4~input_o $end
$var wire 1 H inst5|inst5|1~3_combout $end
$var wire 1 I B5~input_o $end
$var wire 1 J inst5|inst5|1~9_combout $end
$var wire 1 K inst6|inst5|27~0_combout $end
$var wire 1 L inst6|inst5|44~combout $end
$var wire 1 M inst6|inst5|43~combout $end
$var wire 1 N inst7|inst5|45~0_combout $end
$var wire 1 O inst6|inst~0_combout $end
$var wire 1 P B2~input_o $end
$var wire 1 Q inst7|inst5|44~combout $end
$var wire 1 R inst7|inst5|27~0_combout $end
$var wire 1 S inst7|inst5|43~0_combout $end
$var wire 1 T inst8|inst5|45~0_combout $end
$var wire 1 U inst|inst~0_combout $end
$var wire 1 V inst9|inst5|45~0_combout $end
$var wire 1 W inst9|inst5|44~0_combout $end
$var wire 1 X inst9|inst5|43~0_combout $end
$var wire 1 Y inst9|inst5|27~0_combout $end
$var wire 1 Z inst8|inst5|27~0_combout $end
$var wire 1 [ inst8|inst5|44~combout $end
$var wire 1 \ inst8|inst5|43~0_combout $end
$var wire 1 ] B1~input_o $end
$var wire 1 ^ inst10|inst5|45~0_combout $end
$var wire 1 _ inst10|inst5|44~0_combout $end
$var wire 1 ` inst10|inst5|43~0_combout $end
$var wire 1 a inst10|inst5|27~0_combout $end
$var wire 1 b B0~input_o $end
$upscope $end
$upscope $end
$enddefinitions $end
#0
$dumpvars
0!
0"
0#
0$
0%
0&
0'
0(
x)
x*
x+
x,
x-
x.
x/
x0
x1
x2
x3
04
15
x6
17
18
19
x:
x;
x<
x=
x>
x?
x@
xA
xB
xC
0D
0E
0F
0G
xH
0I
xJ
xK
xL
xM
xN
xO
0P
xQ
xR
xS
xT
xU
xV
xW
xX
xY
xZ
x[
x\
0]
x^
x_
x`
xa
0b
$end
#2090
1M
0U
#2252
1J
#3456
0O
#3458
0K
#3952
0L
#4076
0V
#4096
0W
#4534
0Q
#4577
1S
#4578
1N
#4704
1R
#4711
1H
#5184
0X
#5755
0C
0)
#6178
0[
#6199
0Z
#6200
0T
#6206
1\
#6796
0_
#6797
0a
#6820
1`
#6833
0^
#7192
0:
02
#7480
0<
00
#7537
0;
01
#7730
1Y
#9406
0=
0/
#9794
0B
0*
#9817
0?
0-
#10000
1!
03
#10507
1b
#10586
0A
0+
#11193
0>
0.
#11669
0@
0,
#16141
1C
1)
#20000
1"
0!
13
#20535
1]
#20681
0b
#24487
1a
#26436
0C
0)
#27587
1B
1*
#30000
1!
03
#30507
1b
#36141
1C
1)
#40000
1#
0"
0!
13
#40527
1P
#40681
0b
#40708
0]
#44059
1Z
#44663
0`
#44992
0a
#46436
0C
0)
#47989
0B
0*
#48339
1A
1+
#50000
1!
03
#50507
1b
#56141
1C
1)
#60000
1"
0!
13
#60535
1]
#60681
0b
#64487
1a
#66436
0C
0)
#67587
1B
1*
#70000
1!
03
#70507
1b
#76141
1C
1)
#80000
1$
0#
0"
0!
13
#80525
1F
#80681
0b
#80701
0P
#80708
0]
#84507
0Z
#84916
0R
#84923
0H
#84992
0a
#85128
1`
#86436
0C
0)
#86455
0\
#86938
1_
#87989
0B
0*
#88894
0A
0+
#90000
1!
03
#90507
1b
#91886
1@
1,
#96141
1C
1)
#100000
1"
0!
13
#100535
1]
#100681
0b
#104473
0_
#104484
1^
#106436
0C
0)
#107569
1?
1-
#109346
0@
0,
#110000
1!
03
#110507
1b
#116141
1C
1)
#120000
1#
0"
0!
13
#120527
1P
#120681
0b
#120708
0]
#124059
1Z
#124663
0`
#125001
1`
#125002
1a
#126436
0C
0)
#128102
1B
1*
#130000
1!
03
#130507
1b
#136141
1C
1)
#140000
1"
0!
13
#140535
1]
#140681
0b
#144476
0`
#144477
0a
#146436
0C
0)
#147474
0B
0*
#148152
1A
1+
#150000
1!
03
#150507
1b
#156141
1C
1)
#160000
1%
0$
0#
0"
0!
13
#160507
1G
#160681
0b
#160698
0F
#160701
0P
#160708
0]
#163712
1K
#164316
0S
#164507
0Z
#164988
0^
#164997
1_
#165128
1`
#165402
1R
#166010
1Z
#166011
1T
#166013
1\
#166436
0C
0)
#166456
0_
#166614
0`
#166897
0Z
#166898
0T
#166905
1[
#167487
1a
#167518
1^
#167972
0?
0-
#170000
1!
03
#170507
1b
#170587
1B
1*
#170603
1?
1-
#176141
1C
1)
#180000
1"
0!
13
#180535
1]
#180681
0b
#184477
0a
#184483
1_
#184486
1`
#186436
0C
0)
#187474
0B
0*
#188252
0A
0+
#189431
1@
1,
#190000
1!
03
#190507
1b
#196141
1C
1)
#200000
1#
0"
0!
13
#200527
1P
#200681
0b
#200708
0]
#204043
1T
#204051
0[
#204669
0_
#204676
1a
#204706
0^
#204992
0a
#205564
0Y
#206436
0C
0)
#207690
0?
0-
#208906
1>
1.
#209542
0@
0,
#210000
1!
03
#210507
1b
#216141
1C
1)
#220000
1"
0!
13
#220535
1]
#220681
0b
#224487
1a
#226436
0C
0)
#227587
1B
1*
#230000
1!
03
#230507
1b
#236141
1C
1)
#240000
1$
0#
0"
0!
13
#240525
1F
#240681
0b
#240701
0P
#240708
0]
#244481
1[
#244497
0T
#244916
0R
#244991
0`
#245094
1^
#246027
1Y
#246436
0C
0)
#246447
1Z
#246451
1T
#246454
0[
#247073
0a
#247109
0^
#247972
0Y
#248667
1A
1+
#250000
1!
03
#250070
0B
0*
#250507
1b
#256141
1C
1)
#260000
1"
0!
13
#260535
1]
#260681
0b
#264487
1a
#266436
0C
0)
#267587
1B
1*
#270000
1!
03
#270507
1b
#276141
1C
1)
#280000
1#
0"
0!
13
#280527
1P
#280681
0b
#280708
0]
#284060
0\
#284064
0Z
#284537
0a
#284542
1^
#284685
1`
#284988
0^
#284997
1_
#286436
0C
0)
#287534
0B
0*
#288451
0A
0+
#289945
1@
1,
#290000
1!
03
#290507
1b
#296141
1C
1)
#300000
1"
0!
13
#300535
1]
#300681
0b
#304473
0_
#304484
1^
#306436
0C
0)
#307569
1?
1-
#309346
0@
0,
#310000
1!
03
#310507
1b
#316141
1C
1)
#320000
1&
0%
0$
0#
0"
0!
13
#320525
1I
#320681
0b
0G
#320698
0F
#320701
0P
#320708
0]
#322559
0M
#323022
0N
#323031
1R
#323661
1X
#324139
0K
#324497
1\
#324527
0T
#324534
1[
#324775
1S
#324991
0`
#325002
1a
#325402
1N
#325407
1Q
#325409
1H
#326008
0X
#326057
1Y
#326376
0[
#326436
0C
0)
#326995
0a
#326998
1`
#327031
0^
#327059
1Z
#327068
0\
#327099
1T
#327544
1a
#327550
1^
#328102
1B
1*
#328620
0Y
#330000
1!
03
#330507
1b
#336141
1C
1)
#340000
1"
0!
13
#340535
1]
#340681
0b
#344476
0`
#344477
0a
#346436
0C
0)
#347474
0B
0*
#348152
1A
1+
#350000
1!
03
#350507
1b
#356141
1C
1)
#360000
1#
0"
0!
13
#360527
1P
#360681
0b
#360708
0]
#364039
1[
#364055
1\
#364064
0Z
#364602
1_
#364685
1`
#364987
0_
#364991
0`
#365002
1a
#366436
0C
0)
#368102
1B
1*
#370000
1!
03
#370507
1b
#376141
1C
1)
#380000
1"
0!
13
#380535
1]
#380681
0b
#384477
0a
#384483
1_
#384486
1`
#386436
0C
0)
#387474
0B
0*
#388252
0A
0+
#389431
1@
1,
#390000
1!
03
#390507
1b
#396141
1C
1)
#400000
1$
0#
0"
0!
13
#400525
1F
#400681
0b
#400701
0P
#400708
0]
#404493
0[
#404502
0\
1Z
#404917
0N
#404923
0Q
0H
#404984
0_
#405002
1a
#405556
1X
#406436
0C
0)
#406597
0Z
#406606
1\
#406647
0T
#407044
0a
#407048
0^
#408177
1Y
#409845
1=
1/
#409857
0@
0,
#410000
1!
03
#410032
0?
0-
#410507
1b
#411640
0>
0.
#416141
1C
1)
#420000
1"
0!
13
#420535
1]
#420681
0b
#424487
1a
#426436
0C
0)
#427587
1B
1*
#430000
1!
03
#430507
1b
#436141
1C
1)
#440000
1#
0"
0!
13
#440527
1P
#440681
0b
#440708
0]
#444059
1Z
#444663
0`
#444992
0a
#446436
0C
0)
#447989
0B
0*
#448339
1A
1+
#450000
1!
03
#450507
1b
#456141
1C
1)
#460000
1"
0!
13
#460535
1]
#460681
0b
#464487
1a
#466436
0C
0)
#467587
1B
1*
#470000
1!
03
#470507
1b
#476141
1C
1)
#480000
1%
0$
0#
0"
0!
13
#480507
1G
#480681
0b
#480698
0F
#480701
0P
#480708
0]
#483712
1K
#484316
0S
#484507
0Z
#484992
0a
#485128
1`
#485401
0R
#485407
1S
#486436
0C
0)
#486940
0\
#487423
1_
#487989
0B
0*
#488894
0A
0+
#490000
1!
03
#490507
1b
#492371
1@
1,
#496141
1C
1)
#500000
1"
0!
13
#500535
1]
#500681
0b
#504473
0_
#504484
1^
#506436
0C
0)
#507569
1?
1-
#509346
0@
0,
#510000
1!
03
#510507
1b
#516141
1C
1)
#520000
1#
0"
0!
13
#520527
1P
#520681
0b
#520708
0]
#524059
1Z
#524663
0`
#525001
1`
#525002
1a
#526436
0C
0)
#528102
1B
1*
#530000
1!
03
#530507
1b
#536141
1C
1)
#540000
1"
0!
13
#540535
1]
#540681
0b
#544476
0`
#544477
0a
#546436
0C
0)
#547474
0B
0*
#548152
1A
1+
#550000
1!
03
#550507
1b
#556141
1C
1)
#560000
1$
0#
0"
0!
13
#560525
1F
#560681
0b
#560701
0P
#560708
0]
#564507
0Z
#564917
1R
#564920
0S
#564988
0^
#564997
1_
#565128
1`
#566419
1\
#566436
0C
0)
#566617
1[
#566862
0_
#567199
1a
#567213
0`
#567230
1^
#570000
1!
03
#570299
1B
1*
#570507
1b
#576141
1C
1)
#580000
1"
0!
13
#580535
1]
#580681
0b
#584477
0a
#584483
1_
#584486
1`
#586436
0C
0)
#587474
0B
0*
#588252
0A
0+
#589431
1@
1,
#590000
1!
03
#590507
1b
#596141
1C
1)
#600000
1#
0"
0!
13
#600527
1P
#600681
0b
#600708
0]
#604043
1T
#604051
0[
#604669
0_
#604676
1a
#604706
0^
#604992
0a
#605564
0Y
#606436
0C
0)
#607690
0?
0-
#608906
1>
1.
#609542
0@
0,
#610000
1!
03
#610507
1b
#616141
1C
1)
#620000
1"
0!
13
#620535
1]
#620681
0b
#624487
1a
#626436
0C
0)
#627587
1B
1*
#630000
1!
03
#630507
1b
#636141
1C
1)
#640000
1'
0&
0%
0$
0#
0"
0!
13
#640517
1E
#640681
0b
0G
#640698
0F
0I
#640701
0P
#640708
0]
#642685
1M
#643130
0R
#643140
1N
#643746
0X
#644144
1L
#644220
0K
#644661
1Z
#644677
1Q
#644728
1R
#644744
0N
#644856
1S
#644992
0a
#645265
0`
#645383
1X
#645401
0R
#645406
0S
#645408
0Q
#645409
1H
#646436
0C
0)
#647989
0B
0*
#648941
1A
1+
#650000
1!
03
#650507
1b
#656141
1C
1)
#660000
1"
0!
13
#660535
1]
#660681
0b
#664487
1a
#666436
0C
0)
#667587
1B
1*
#670000
1!
03
#670507
1b
#676141
1C
1)
#680000
1#
0"
0!
13
#680527
1P
#680681
0b
#680708
0]
#684060
0\
#684064
0Z
#684537
0a
#684542
1^
#684685
1`
#684988
0^
#684997
1_
#686436
0C
0)
#687534
0B
0*
#688451
0A
0+
#689945
1@
1,
#690000
1!
03
#690507
1b
#696141
1C
1)
#700000
1"
0!
13
#700535
1]
#700681
0b
#704473
0_
#704484
1^
#706436
0C
0)
#707569
1?
1-
#709346
0@
0,
#710000
1!
03
#710507
1b
#716141
1C
1)
#720000
1$
0#
0"
0!
13
#720525
1F
#720681
0b
#720701
0P
#720708
0]
#724497
1\
#724502
1Z
#724917
1R
#724921
1S
#724922
1Q
#724923
0H
#724939
0^
#725106
0`
#726436
0C
0)
#726583
0\
#727059
1a
#727060
1`
#727065
1^
#730000
1!
03
#730159
1B
1*
#730507
1b
#736141
1C
1)
#740000
1"
0!
13
#740535
1]
#740681
0b
#744476
0`
#744477
0a
#746436
0C
0)
#747474
0B
0*
#748152
1A
1+
#750000
1!
03
#750507
1b
#756141
1C
1)
#760000
1#
0"
0!
13
#760527
1P
#760681
0b
#760708
0]
#764039
1[
#764055
1\
#764064
0Z
#764602
1_
#764685
1`
#764987
0_
#764991
0`
#765002
1a
#766436
0C
0)
#768102
1B
1*
#770000
1!
03
#770507
1b
#776141
1C
1)
#780000
1"
0!
13
#780535
1]
#780681
0b
#784477
0a
#784483
1_
#784486
1`
#786436
0C
0)
#787474
0B
0*
#788252
0A
0+
#789431
1@
1,
#790000
1!
03
#790507
1b
#796141
1C
1)
#800000
1%
0$
0#
0"
0!
13
#800507
1G
#800681
0b
#800698
0F
#800701
0P
#800708
0]
#803698
0L
#803711
1O
#804280
0Q
#804290
1Y
#804295
1V
#804324
1N
#804343
0R
#804493
0[
#804502
0\
1Z
#804930
0X
#804984
0_
#805002
1a
#805402
1R
#805954
0Z
#805963
1\
#806004
0T
#806401
0a
#806405
0^
#806436
0C
0)
#807532
1W
#807533
0V
#807753
0>
0.
#807878
1;
11
#809152
0=
0/
#809389
0?
0-
#809857
0@
0,
#810000
1!
03
#810507
1b
#810994
0;
01
#811054
1<
10
#816141
1C
1)
#820000
1"
0!
13
#820535
1]
#820681
0b
#824487
1a
#826436
0C
0)
#827587
1B
1*
#830000
1!
03
#830507
1b
#836141
1C
1)
#840000
1#
0"
0!
13
#840527
1P
#840681
0b
#840708
0]
#844059
1Z
#844663
0`
#844992
0a
#846436
0C
0)
#847989
0B
0*
#848339
1A
1+
#850000
1!
03
#850507
1b
#856141
1C
1)
#860000
1"
0!
13
#860535
1]
#860681
0b
#864487
1a
#866436
0C
0)
#867587
1B
1*
#870000
1!
03
#870507
1b
#876141
1C
1)
#880000
1$
0#
0"
0!
13
#880525
1F
#880681
0b
#880701
0P
#880708
0]
#884507
0Z
#884916
0R
#884992
0a
#885128
1`
#886436
0C
0)
#886455
0\
#886938
1_
#887989
0B
0*
#888894
0A
0+
#890000
1!
03
#890507
1b
#891886
1@
1,
#896141
1C
1)
#900000
1"
0!
13
#900535
1]
#900681
0b
#904473
0_
#904484
1^
#906436
0C
0)
#907569
1?
1-
#909346
0@
0,
#910000
1!
03
#910507
1b
#916141
1C
1)
#920000
1#
0"
0!
13
#920527
1P
#920681
0b
#920708
0]
#924059
1Z
#924663
0`
#925001
1`
#925002
1a
#926436
0C
0)
#928102
1B
1*
#930000
1!
03
#930507
1b
#936141
1C
1)
#940000
1"
0!
13
#940535
1]
#940681
0b
#944476
0`
#944477
0a
#946436
0C
0)
#947474
0B
0*
#948152
1A
1+
#950000
1!
03
#950507
1b
#956141
1C
1)
#960000
1&
0%
0$
0#
0"
0!
13
#960525
1I
#960681
0b
0G
#960698
0F
#960701
0P
#960708
0]
#962559
0M
#963022
0N
#963031
1R
#963667
0W
#963672
0Y
#963675
1V
#964149
1K
1M
#964507
0Z
#964533
1\
#964594
0R
#964604
1N
#964753
0S
#964975
0^
#965128
1`
#965176
1W
#965181
1Y
#965217
0V
#965402
1R
#965409
1H
#966436
0C
0)
#966450
1[
#967032
1a
#967046
0`
#967063
1^
#970000
1!
03
#970132
1B
1*
#970507
1b
#976141
1C
1)
#980000
1"
0!
13
#980535
1]
#980681
0b
#984477
0a
#984483
1_
#984486
1`
#986436
0C
0)
#987474
0B
0*
#988252
0A
0+
#989431
1@
1,
#990000
1!
03
#990507
1b
#996141
1C
1)
