2022_Dec_Digital_Logic_project/binarydowncounter/simulation/qsim/binarydowncounter.msim.vcd
$comment
	File created using the following command:
		vcd file binarydowncounter.msim.vcd -direction
$end
$date
	Mon Mar 20 16:01:05 2023
$end
$version
	ModelSim Version 10.1d
$end
$timescale
	1ps
$end
$scope module binarydowncounter_vlg_vec_tst $end
$var reg 1 ! C $end
$var reg 1 " CLK $end
$var reg 1 # I0 $end
$var reg 1 $ I1 $end
$var reg 1 % I2 $end
$var reg 1 & I3 $end
$var reg 1 ' L $end
$var wire 1 ( Cout $end
$var wire 1 ) Q0 $end
$var wire 1 * Q1 $end
$var wire 1 + Q2 $end
$var wire 1 , Q3 $end
$var wire 1 - sampler $end
$scope module i1 $end
$var wire 1 . gnd $end
$var wire 1 / vcc $end
$var wire 1 0 unknown $end
$var tri1 1 1 devclrn $end
$var tri1 1 2 devpor $end
$var tri1 1 3 devoe $end
$var wire 1 4 Cout~output_o $end
$var wire 1 5 Q0~output_o $end
$var wire 1 6 Q1~output_o $end
$var wire 1 7 Q2~output_o $end
$var wire 1 8 Q3~output_o $end
$var wire 1 9 CLK~input_o $end
$var wire 1 : CLK~inputclkctrl_outclk $end
$var wire 1 ; L~input_o $end
$var wire 1 < I2~input_o $end
$var wire 1 = C~input_o $end
$var wire 1 > I1~input_o $end
$var wire 1 ? I0~input_o $end
$var wire 1 @ inst43~combout $end
$var wire 1 A inst44~q $end
$var wire 1 B inst46~combout $end
$var wire 1 C 99~combout $end
$var wire 1 D inst48~q $end
$var wire 1 E inst47~combout $end
$var wire 1 F inst51~combout $end
$var wire 1 G inst52~q $end
$var wire 1 H I3~input_o $end
$var wire 1 I inst54~combout $end
$var wire 1 J inst56~combout $end
$var wire 1 K inst57~q $end
$var wire 1 L inst58~combout $end
$upscope $end
$upscope $end
$enddefinitions $end
#0
$dumpvars
1!
0"
1#
1$
1%
1&
0'
0(
0)
0*
0+
0,
x-
0.
1/
x0
11
12
13
04
05
06
07
08
09
0:
0;
1<
1=
1>
1?
1@
0A
0B
0C
0D
0E
0F
0G
1H
0I
0J
0K
0L
$end
#10000
0!
1"
0#
0$
0%
0&
0=
19
0?
0>
0<
0H
1:
0-
0@
1A
1@
15
1)
#20000
1!
0"
1&
1=
09
1H
0:
1-
1B
0@
1C
#30000
1%
0!
1"
0&
1<
0=
19
0H
1:
0-
0B
1@
0C
1D
0A
1B
0@
16
05
1*
0)
1C
#40000
1!
0"
1&
1=
09
1H
0:
1-
1@
#50000
1$
0%
0!
1"
0&
1>
0<
0=
19
0H
1:
0-
0@
1A
1@
15
1)
#60000
1!
0"
1&
1=
09
1H
0:
1-
1E
0B
0@
1F
0C
#70000
1%
0!
1"
0&
1<
0=
19
0H
1:
0-
0E
1B
1@
0F
1C
1G
0D
0A
1F
0B
0@
17
06
05
1+
0*
0)
0C
#80000
1!
0"
1&
1=
09
1H
0:
1-
1@
#90000
1#
0$
0%
0!
1"
0&
1?
0>
0<
0=
19
0H
1:
0-
0@
1A
1@
15
1)
#100000
1!
0"
1&
1=
09
1H
0:
1-
1B
0@
1C
#110000
1%
0!
1"
0&
1<
0=
19
0H
1:
0-
0B
1@
0C
1D
0A
1B
0@
16
05
1*
0)
1C
#120000
1!
0"
1&
1=
09
1H
0:
1-
1@
#130000
1$
0%
0!
1"
0&
1>
0<
0=
19
0H
1:
0-
0@
1A
1@
15
1)
#140000
1!
0"
1&
1=
09
1H
0:
1-
1E
0B
0@
1J
0F
0C
#150000
1%
0!
1"
0&
1<
0=
19
0H
1:
0-
0E
1B
1@
0J
1F
1C
1K
0G
0D
0A
1J
0F
0B
0@
18
07
06
05
1,
0+
0*
0)
0C
#160000
1!
0"
1&
1=
09
1H
0:
1-
1@
#170000
0#
0$
0%
0!
1"
0&
0?
0>
0<
0=
19
0H
1:
0-
0@
1A
1@
15
1)
#180000
1!
0"
1&
1=
09
1H
0:
1-
1B
0@
1C
#190000
1%
0!
1"
0&
1<
0=
19
0H
1:
0-
0B
1@
0C
1D
0A
1B
0@
16
05
1*
0)
1C
#200000
1!
0"
1&
1=
09
1H
0:
1-
1@
#210000
1$
0%
0!
1"
0&
1>
0<
0=
19
0H
1:
0-
0@
1A
1@
15
1)
#220000
1!
0"
1&
1=
09
1H
0:
1-
1E
0B
0@
1F
0C
#230000
1%
0!
1"
0&
1<
0=
19
0H
1:
0-
0E
1B
1@
0F
1C
1G
0D
0A
1F
0B
0@
17
06
05
1+
0*
0)
0C
#240000
1!
0"
1&
1=
09
1H
0:
1-
1@
#250000
1#
0$
0%
0!
1"
0&
1?
0>
0<
0=
19
0H
1:
0-
0@
1A
1@
15
1)
#260000
1!
0"
1&
1=
09
1H
0:
1-
1B
0@
1C
#270000
1%
0!
1"
0&
1<
0=
19
0H
1:
0-
0B
1@
0C
1D
0A
1B
0@
16
05
1*
0)
1C
#280000
1!
0"
1&
1=
09
1H
0:
1-
1@
#290000
1$
0%
0!
1"
0&
1>
0<
0=
19
0H
1:
0-
0@
1A
1@
15
1)
#300000
1!
0"
1&
1=
09
1H
0:
1-
1E
0B
0@
0J
0F
0C
1L
14
1(
#310000
1%
0!
1"
0&
1<
0=
19
0H
1:
0-
0E
1B
1@
1J
1F
1C
0L
04
0(
0K
0G
0D
0A
0J
0F
0B
0@
08
07
06
05
0,
0+
0*
0)
0C
#320000
1!
0"
1&
1=
09
1H
0:
1-
1@
#330000
0#
0$
0%
0!
1"
0&
0?
0>
0<
0=
19
0H
1:
0-
0@
1A
1@
15
1)
#340000
1!
0"
1&
1=
09
1H
0:
1-
1B
0@
1C
#350000
1%
0!
1"
0&
1<
0=
19
0H
1:
0-
0B
1@
0C
1D
0A
1B
0@
16
05
1*
0)
1C
#360000
1!
0"
1&
1=
09
1H
0:
1-
1@
#370000
1$
0%
0!
1"
0&
1>
0<
0=
19
0H
1:
0-
0@
1A
1@
15
1)
#380000
1!
0"
1&
1=
09
1H
0:
1-
1E
0B
0@
1F
0C
#390000
1%
0!
1"
0&
1<
0=
19
0H
1:
0-
0E
1B
1@
0F
1C
1G
0D
0A
1F
0B
0@
17
06
05
1+
0*
0)
0C
#400000
1!
0"
1&
1=
09
1H
0:
1-
1@
#410000
1#
0$
0%
0!
1"
0&
1?
0>
0<
0=
19
0H
1:
0-
0@
1A
1@
15
1)
#420000
1!
0"
1&
1=
09
1H
0:
1-
1B
0@
1C
#430000
1%
0!
1"
0&
1<
0=
19
0H
1:
0-
0B
1@
0C
1D
0A
1B
0@
16
05
1*
0)
1C
#440000
1!
0"
1&
1=
09
1H
0:
1-
1@
#450000
1$
0%
0!
1"
0&
1>
0<
0=
19
0H
1:
0-
0@
1A
1@
15
1)
#460000
1!
0"
1&
1=
09
1H
0:
1-
1E
0B
0@
1J
0F
0C
#470000
1%
0!
1"
0&
1<
0=
19
0H
1:
0-
0E
1B
1@
0J
1F
1C
1K
0G
0D
0A
1J
0F
0B
0@
18
07
06
05
1,
0+
0*
0)
0C
#480000
1!
0"
1&
1=
09
1H
0:
1-
1@
#490000
0#
0$
0%
0!
1"
0&
0?
0>
0<
0=
19
0H
1:
0-
0@
1A
1@
15
1)
#500000
1!
0"
1&
1=
09
1H
0:
1-
1B
0@
1C
#510000
1%
0!
1"
0&
1<
0=
19
0H
1:
0-
0B
1@
0C
1D
0A
1B
0@
16
05
1*
0)
1C
#520000
1!
0"
1&
1=
09
1H
0:
1-
1@
#530000
1$
0%
0!
1"
0&
1>
0<
0=
19
0H
1:
0-
0@
1A
1@
15
1)
#540000
1!
0"
1&
1=
09
1H
0:
1-
1E
0B
0@
1F
0C
#550000
1%
0!
1"
0&
1<
0=
19
0H
1:
0-
0E
1B
1@
0F
1C
1G
0D
0A
1F
0B
0@
17
06
05
1+
0*
0)
0C
#560000
1!
0"
1&
1=
09
1H
0:
1-
1@
#570000
1#
0$
0%
0!
1"
0&
1?
0>
0<
0=
19
0H
1:
0-
0@
1A
1@
15
1)
#580000
1!
0"
1&
1=
09
1H
0:
1-
1B
0@
1C
#590000
1%
0!
1"
0&
1<
0=
19
0H
1:
0-
0B
1@
0C
1D
0A
1B
0@
16
05
1*
0)
1C
#600000
1!
0"
1&
1=
09
1H
0:
1-
1@
#610000
1$
0%
0!
1"
0&
1>
0<
0=
19
0H
1:
0-
0@
1A
1@
15
1)
#620000
1!
0"
1&
1=
09
1H
0:
1-
1E
0B
0@
0J
0F
0C
1L
14
1(
#630000
1%
0!
1"
0&
1<
0=
19
0H
1:
0-
0E
1B
1@
1J
1F
1C
0L
04
0(
0K
0G
0D
0A
0J
0F
0B
0@
08
07
06
05
0,
0+
0*
0)
0C
#640000
1!
0"
1&
1=
09
1H
0:
1-
1@
#650000
0#
0$
0%
0!
1"
0&
0?
0>
0<
0=
19
0H
1:
0-
0@
1A
1@
15
1)
#660000
1!
0"
1&
1=
09
1H
0:
1-
1B
0@
1C
#670000
1%
0!
1"
0&
1<
0=
19
0H
1:
0-
0B
1@
0C
1D
0A
1B
0@
16
05
1*
0)
1C
#680000
1!
0"
1&
1=
09
1H
0:
1-
1@
#690000
1$
0%
0!
1"
0&
1>
0<
0=
19
0H
1:
0-
0@
1A
1@
15
1)
#700000
1!
0"
1&
1=
09
1H
0:
1-
1E
0B
0@
1F
0C
#710000
1%
0!
1"
0&
1<
0=
19
0H
1:
0-
0E
1B
1@
0F
1C
1G
0D
0A
1F
0B
0@
17
06
05
1+
0*
0)
0C
#720000
1!
0"
1&
1=
09
1H
0:
1-
1@
#730000
1#
0$
0%
0!
1"
0&
1?
0>
0<
0=
19
0H
1:
0-
0@
1A
1@
15
1)
#740000
1!
0"
1&
1=
09
1H
0:
1-
1B
0@
1C
#750000
1%
0!
1"
0&
1<
0=
19
0H
1:
0-
0B
1@
0C
1D
0A
1B
0@
16
05
1*
0)
1C
#760000
1!
0"
1&
1=
09
1H
0:
1-
1@
#770000
1$
0%
0!
1"
0&
1>
0<
0=
19
0H
1:
0-
0@
1A
1@
15
1)
#780000
1!
0"
1&
1=
09
1H
0:
1-
1E
0B
0@
1J
0F
0C
#790000
1%
0!
1"
0&
1<
0=
19
0H
1:
0-
0E
1B
1@
0J
1F
1C
1K
0G
0D
0A
1J
0F
0B
0@
18
07
06
05
1,
0+
0*
0)
0C
#800000
1!
0"
1&
1=
09
1H
0:
1-
1@
#810000
0#
0$
0%
0!
1"
0&
0?
0>
0<
0=
19
0H
1:
0-
0@
1A
1@
15
1)
#820000
1!
0"
1&
1=
09
1H
0:
1-
1B
0@
1C
#830000
1%
0!
1"
0&
1<
0=
19
0H
1:
0-
0B
1@
0C
1D
0A
1B
0@
16
05
1*
0)
1C
#840000
1!
0"
1&
1=
09
1H
0:
1-
1@
#850000
1$
0%
0!
1"
0&
1>
0<
0=
19
0H
1:
0-
0@
1A
1@
15
1)
#860000
1!
0"
1&
1=
09
1H
0:
1-
1E
0B
0@
1F
0C
#870000
1%
0!
1"
0&
1<
0=
19
0H
1:
0-
0E
1B
1@
0F
1C
1G
0D
0A
1F
0B
0@
17
06
05
1+
0*
0)
0C
#880000
1!
0"
1&
1=
09
1H
0:
1-
1@
#890000
1#
0$
0%
0!
1"
0&
1?
0>
0<
0=
19
0H
1:
0-
0@
1A
1@
15
1)
#900000
1!
0"
1&
1=
09
1H
0:
1-
1B
0@
1C
#910000
1%
0!
1"
0&
1<
0=
19
0H
1:
0-
0B
1@
0C
1D
0A
1B
0@
16
05
1*
0)
1C
#920000
1!
0"
1&
1=
09
1H
0:
1-
1@
#930000
1$
0%
0!
1"
0&
1>
0<
0=
19
0H
1:
0-
0@
1A
1@
15
1)
#940000
1!
0"
1&
1=
09
1H
0:
1-
1E
0B
0@
0J
0F
0C
1L
14
1(
#950000
1%
0!
1"
0&
1<
0=
19
0H
1:
0-
0E
1B
1@
1J
1F
1C
0L
04
0(
0K
0G
0D
0A
0J
0F
0B
0@
08
07
06
05
0,
0+
0*
0)
0C
#960000
1!
0"
1&
1=
09
1H
0:
1-
1@
#970000
0#
0$
0%
0!
1"
0&
0?
0>
0<
0=
19
0H
1:
0-
0@
1A
1@
15
1)
#980000
1!
0"
1&
1=
09
1H
0:
1-
1B
0@
1C
#990000
1%
0!
1"
0&
1<
0=
19
0H
1:
0-
0B
1@
0C
1D
0A
1B
0@
16
05
1*
0)
1C
