2022_Dec_Digital_Logic_project/binary_to_BCD/simulation/qsim/binary_to_BCD.msim.vcd
$comment
	File created using the following command:
		vcd file binary_to_BCD.msim.vcd -direction
$end
$date
	Fri Mar 10 17:07:57 2023
$end
$version
	ModelSim Version 10.1d
$end
$timescale
	1ps
$end
$scope module binary_to_BCD_vlg_vec_tst $end
$var reg 10 ! D [9:0] $end
$var wire 1 " Y [3] $end
$var wire 1 # Y [2] $end
$var wire 1 $ Y [1] $end
$var wire 1 % Y [0] $end
$var wire 1 & sampler $end
$scope module i1 $end
$var wire 1 ' gnd $end
$var wire 1 ( vcc $end
$var wire 1 ) unknown $end
$var tri1 1 * devclrn $end
$var tri1 1 + devpor $end
$var tri1 1 , devoe $end
$var wire 1 - D[0]~input_o $end
$var wire 1 . Y[3]~output_o $end
$var wire 1 / Y[2]~output_o $end
$var wire 1 0 Y[1]~output_o $end
$var wire 1 1 Y[0]~output_o $end
$var wire 1 2 D[8]~input_o $end
$var wire 1 3 D[9]~input_o $end
$var wire 1 4 inst2~combout $end
$var wire 1 5 D[7]~input_o $end
$var wire 1 6 D[5]~input_o $end
$var wire 1 7 D[4]~input_o $end
$var wire 1 8 D[6]~input_o $end
$var wire 1 9 inst3~0_combout $end
$var wire 1 : D[2]~input_o $end
$var wire 1 ; D[3]~input_o $end
$var wire 1 < inst4~0_combout $end
$var wire 1 = D[1]~input_o $end
$var wire 1 > inst5~0_combout $end
$var wire 1 ? inst5~combout $end
$upscope $end
$upscope $end
$enddefinitions $end
#0
$dumpvars
b0 !
0%
0$
0#
0"
x&
0'
1(
x)
1*
1+
1,
0-
0.
0/
00
01
02
03
04
05
06
07
08
09
0:
0;
0<
0=
0>
0?
$end
#10000
b1 !
1-
0&
#20000
b11 !
b10 !
0-
1=
1&
1?
11
1%
#30000
b11 !
1-
0&
#40000
b111 !
b101 !
b100 !
0-
0=
1:
1&
0?
1<
01
10
0%
1$
#50000
b101 !
1-
0&
#60000
b111 !
b110 !
0-
1=
1&
1?
11
1%
#70000
b111 !
1-
0&
#80000
b1111 !
b1011 !
b1001 !
b1000 !
0-
0=
0:
1;
1&
1>
0?
01
0%
1?
11
1%
#90000
b1001 !
1-
0&
#100000
b1011 !
b1010 !
0-
1=
1&
#110000
b1011 !
1-
0&
#120000
b1111 !
b1101 !
b1100 !
0-
0=
1:
1&
#130000
b1101 !
1-
0&
#140000
b1111 !
b1110 !
0-
1=
1&
#150000
b1111 !
1-
0&
#160000
b11111 !
b10111 !
b10011 !
b10001 !
b10000 !
0-
0=
0:
0;
17
1&
0>
0<
19
00
1/
0$
1#
0?
01
0%
#170000
b10001 !
1-
0&
#180000
b10011 !
b10010 !
0-
1=
1&
1?
11
1%
#190000
b10011 !
1-
0&
#200000
b10111 !
b10101 !
b10100 !
0-
0=
1:
1&
0?
1<
01
10
0%
1$
#210000
b10101 !
1-
0&
#220000
b10111 !
b10110 !
0-
1=
1&
1?
11
1%
#230000
b10111 !
1-
0&
#240000
b11111 !
b11011 !
b11001 !
b11000 !
0-
0=
0:
1;
1&
1>
0?
01
0%
1?
11
1%
#250000
b11001 !
1-
0&
#260000
b11011 !
b11010 !
0-
1=
1&
#270000
b11011 !
1-
0&
#280000
b11111 !
b11101 !
b11100 !
0-
0=
1:
1&
#290000
b11101 !
1-
0&
#300000
b11111 !
b11110 !
0-
1=
1&
#310000
b11111 !
1-
0&
#320000
b111111 !
b101111 !
b100111 !
b100011 !
b100001 !
b100000 !
0-
0=
0:
0;
07
16
1&
0<
00
0$
#330000
b100001 !
1-
0&
#340000
b100011 !
b100010 !
0-
1=
1&
#350000
b100011 !
1-
0&
#360000
b100111 !
b100101 !
b100100 !
0-
0=
1:
1&
1<
10
1$
#370000
b100101 !
1-
0&
#380000
b100111 !
b100110 !
0-
1=
1&
#390000
b100111 !
1-
0&
#400000
b101111 !
b101011 !
b101001 !
b101000 !
0-
0=
0:
1;
1&
#410000
b101001 !
1-
0&
#420000
b101011 !
b101010 !
0-
1=
1&
#430000
b101011 !
1-
0&
#440000
b101111 !
b101101 !
b101100 !
0-
0=
1:
1&
#450000
b101101 !
1-
0&
#460000
b101111 !
b101110 !
0-
1=
1&
#470000
b101111 !
1-
0&
#480000
b111111 !
b110111 !
b110011 !
b110001 !
b110000 !
0-
0=
0:
0;
17
1&
0<
00
0$
#490000
b110001 !
1-
0&
#500000
b110011 !
b110010 !
0-
1=
1&
#510000
b110011 !
1-
0&
#520000
b110111 !
b110101 !
b110100 !
0-
0=
1:
1&
1<
10
1$
#530000
b110101 !
1-
0&
#540000
b110111 !
b110110 !
0-
1=
1&
#550000
b110111 !
1-
0&
#560000
b111111 !
b111011 !
b111001 !
b111000 !
0-
0=
0:
1;
1&
#570000
b111001 !
1-
0&
#580000
b111011 !
b111010 !
0-
1=
1&
#590000
b111011 !
1-
0&
#600000
b111111 !
b111101 !
b111100 !
0-
0=
1:
1&
#610000
b111101 !
1-
0&
#620000
b111111 !
b111110 !
0-
1=
1&
#630000
b111111 !
1-
0&
#640000
b1111111 !
b1011111 !
b1001111 !
b1000111 !
b1000011 !
b1000001 !
b1000000 !
0-
0=
0:
0;
07
06
18
1&
0>
0?
01
0%
#650000
b1000001 !
1-
0&
#660000
b1000011 !
b1000010 !
0-
1=
1&
1?
11
1%
#670000
b1000011 !
1-
0&
#680000
b1000111 !
b1000101 !
b1000100 !
0-
0=
1:
1&
0?
01
0%
#690000
b1000101 !
1-
0&
#700000
b1000111 !
b1000110 !
0-
1=
1&
1?
11
1%
#710000
b1000111 !
1-
0&
#720000
b1001111 !
b1001011 !
b1001001 !
b1001000 !
0-
0=
0:
1;
1&
1>
0?
01
0%
1?
11
1%
#730000
b1001001 !
1-
0&
#740000
b1001011 !
b1001010 !
0-
1=
1&
#750000
b1001011 !
1-
0&
#760000
b1001111 !
b1001101 !
b1001100 !
0-
0=
1:
1&
#770000
b1001101 !
1-
0&
#780000
b1001111 !
b1001110 !
0-
1=
1&
#790000
b1001111 !
1-
0&
#800000
b1011111 !
b1010111 !
b1010011 !
b1010001 !
b1010000 !
0-
0=
0:
0;
17
1&
0>
0?
01
0%
#810000
b1010001 !
1-
0&
#820000
b1010011 !
b1010010 !
0-
1=
1&
1?
11
1%
#830000
b1010011 !
1-
0&
#840000
b1010111 !
b1010101 !
b1010100 !
0-
0=
1:
1&
0?
01
0%
#850000
b1010101 !
1-
0&
#860000
b1010111 !
b1010110 !
0-
1=
1&
1?
11
1%
#870000
b1010111 !
1-
0&
#880000
b1011111 !
b1011011 !
b1011001 !
b1011000 !
0-
0=
0:
1;
1&
1>
0?
01
0%
1?
11
1%
#890000
b1011001 !
1-
0&
#900000
b1011011 !
b1011010 !
0-
1=
1&
#910000
b1011011 !
1-
0&
#920000
b1011111 !
b1011101 !
b1011100 !
0-
0=
1:
1&
#930000
b1011101 !
1-
0&
#940000
b1011111 !
b1011110 !
0-
1=
1&
#950000
b1011111 !
1-
0&
#960000
b1111111 !
b1101111 !
b1100111 !
b1100011 !
b1100001 !
b1100000 !
0-
0=
0:
0;
07
16
1&
#970000
b1100001 !
1-
0&
#980000
b1100011 !
b1100010 !
0-
1=
1&
#990000
b1100011 !
1-
0&
