2022_Dec_Digital_Logic_project/binary_to_bcd_converter/simulation/qsim/binary_to_bcd_converter.msim.vcd
$comment
	File created using the following command:
		vcd file binary_to_bcd_converter.msim.vcd -direction
$end
$date
	Tue Mar 14 13:04:53 2023
$end
$version
	ModelSim Version 10.1d
$end
$timescale
	1ps
$end
$scope module binary_to_bcd_converter_vlg_vec_tst $end
$var reg 8 ! binary_value [7:0] $end
$var reg 1 " clk $end
$var wire 1 # hundred [3] $end
$var wire 1 $ hundred [2] $end
$var wire 1 % hundred [1] $end
$var wire 1 & hundred [0] $end
$var wire 1 ' one [3] $end
$var wire 1 ( one [2] $end
$var wire 1 ) one [1] $end
$var wire 1 * one [0] $end
$var wire 1 + ten [3] $end
$var wire 1 , ten [2] $end
$var wire 1 - ten [1] $end
$var wire 1 . ten [0] $end
$var wire 1 / sampler $end
$scope module i1 $end
$var wire 1 0 gnd $end
$var wire 1 1 vcc $end
$var wire 1 2 unknown $end
$var tri1 1 3 devclrn $end
$var tri1 1 4 devpor $end
$var tri1 1 5 devoe $end
$var wire 1 6 one[0]~output_o $end
$var wire 1 7 one[1]~output_o $end
$var wire 1 8 one[2]~output_o $end
$var wire 1 9 one[3]~output_o $end
$var wire 1 : ten[0]~output_o $end
$var wire 1 ; ten[1]~output_o $end
$var wire 1 < ten[2]~output_o $end
$var wire 1 = ten[3]~output_o $end
$var wire 1 > hundred[0]~output_o $end
$var wire 1 ? hundred[1]~output_o $end
$var wire 1 @ hundred[2]~output_o $end
$var wire 1 A hundred[3]~output_o $end
$var wire 1 B clk~input_o $end
$var wire 1 C clk~inputclkctrl_outclk $end
$var wire 1 D binary_value[7]~input_o $end
$var wire 1 E binary_value[6]~input_o $end
$var wire 1 F binary_value[5]~input_o $end
$var wire 1 G binary_value[4]~input_o $end
$var wire 1 H binary_value[3]~input_o $end
$var wire 1 I binary_value[2]~input_o $end
$var wire 1 J binary_value[1]~input_o $end
$var wire 1 K always0~1_combout $end
$var wire 1 L old_binary_value[7]~feeder_combout $end
$var wire 1 M Equal1~3_combout $end
$var wire 1 N binary_value[0]~input_o $end
$var wire 1 O old_binary_value[1]~feeder_combout $end
$var wire 1 P Equal1~0_combout $end
$var wire 1 Q Equal1~1_combout $end
$var wire 1 R Equal1~2_combout $end
$var wire 1 S Equal1~4_combout $end
$var wire 1 T Add0~0_combout $end
$var wire 1 U i~3_combout $end
$var wire 1 V i~2_combout $end
$var wire 1 W i~0_combout $end
$var wire 1 X i~1_combout $end
$var wire 1 Y always0~0_combout $end
$var wire 1 Z always0~2_combout $end
$var wire 1 [ shift~8_combout $end
$var wire 1 \ shift~7_combout $end
$var wire 1 ] shift[1]~6_combout $end
$var wire 1 ^ shift[2]~5_combout $end
$var wire 1 _ shift[3]~4_combout $end
$var wire 1 ` shift[4]~3_combout $end
$var wire 1 a shift[5]~2_combout $end
$var wire 1 b shift[6]~1_combout $end
$var wire 1 c shift[7]~0_combout $end
$var wire 1 d temp_one[0]~feeder_combout $end
$var wire 1 e temp_one~0_combout $end
$var wire 1 f Equal2~0_combout $end
$var wire 1 g one[0]~reg0_q $end
$var wire 1 h temp_one[1]~feeder_combout $end
$var wire 1 i temp_one~3_combout $end
$var wire 1 j temp_one~4_combout $end
$var wire 1 k temp_one~7_combout $end
$var wire 1 l temp_one~5_combout $end
$var wire 1 m temp_one~6_combout $end
$var wire 1 n temp_one~8_combout $end
$var wire 1 o temp_one~9_combout $end
$var wire 1 p temp_one~1_combout $end
$var wire 1 q temp_one~2_combout $end
$var wire 1 r one[1]~reg0_q $end
$var wire 1 s one[2]~reg0feeder_combout $end
$var wire 1 t one[2]~reg0_q $end
$var wire 1 u one[3]~reg0_q $end
$var wire 1 v temp_ten~0_combout $end
$var wire 1 w temp_ten[0]~feeder_combout $end
$var wire 1 x temp_ten~1_combout $end
$var wire 1 y ten[0]~reg0_q $end
$var wire 1 z temp_ten[1]~feeder_combout $end
$var wire 1 { temp_ten~6_combout $end
$var wire 1 | temp_ten~7_combout $end
$var wire 1 } temp_ten~8_combout $end
$var wire 1 ~ temp_ten[3]~feeder_combout $end
$var wire 1 !! temp_ten~4_combout $end
$var wire 1 "! temp_ten~5_combout $end
$var wire 1 #! temp_ten[2]~feeder_combout $end
$var wire 1 $! temp_ten~2_combout $end
$var wire 1 %! temp_ten~3_combout $end
$var wire 1 &! ten[1]~reg0_q $end
$var wire 1 '! ten[2]~reg0_q $end
$var wire 1 (! ten[3]~reg0_q $end
$var wire 1 )! temp_hundred[0]~feeder_combout $end
$var wire 1 *! temp_hundred~0_combout $end
$var wire 1 +! temp_hundred~1_combout $end
$var wire 1 ,! hundred[0]~reg0_q $end
$var wire 1 -! temp_hundred~4_combout $end
$var wire 1 .! temp_hundred~5_combout $end
$var wire 1 /! LessThan2~0_combout $end
$var wire 1 0! temp_hundred~6_combout $end
$var wire 1 1! temp_hundred~7_combout $end
$var wire 1 2! LessThan2~1_combout $end
$var wire 1 3! temp_hundred~2_combout $end
$var wire 1 4! temp_hundred~3_combout $end
$var wire 1 5! hundred[1]~reg0_q $end
$var wire 1 6! hundred[2]~reg0_q $end
$var wire 1 7! hundred[3]~reg0feeder_combout $end
$var wire 1 8! hundred[3]~reg0_q $end
$var wire 1 9! temp_ten [3] $end
$var wire 1 :! temp_ten [2] $end
$var wire 1 ;! temp_ten [1] $end
$var wire 1 <! temp_ten [0] $end
$var wire 1 =! temp_one [3] $end
$var wire 1 >! temp_one [2] $end
$var wire 1 ?! temp_one [1] $end
$var wire 1 @! temp_one [0] $end
$var wire 1 A! temp_hundred [3] $end
$var wire 1 B! temp_hundred [2] $end
$var wire 1 C! temp_hundred [1] $end
$var wire 1 D! temp_hundred [0] $end
$var wire 1 E! shift [19] $end
$var wire 1 F! shift [18] $end
$var wire 1 G! shift [17] $end
$var wire 1 H! shift [16] $end
$var wire 1 I! shift [15] $end
$var wire 1 J! shift [14] $end
$var wire 1 K! shift [13] $end
$var wire 1 L! shift [12] $end
$var wire 1 M! shift [11] $end
$var wire 1 N! shift [10] $end
$var wire 1 O! shift [9] $end
$var wire 1 P! shift [8] $end
$var wire 1 Q! shift [7] $end
$var wire 1 R! shift [6] $end
$var wire 1 S! shift [5] $end
$var wire 1 T! shift [4] $end
$var wire 1 U! shift [3] $end
$var wire 1 V! shift [2] $end
$var wire 1 W! shift [1] $end
$var wire 1 X! shift [0] $end
$var wire 1 Y! old_binary_value [7] $end
$var wire 1 Z! old_binary_value [6] $end
$var wire 1 [! old_binary_value [5] $end
$var wire 1 \! old_binary_value [4] $end
$var wire 1 ]! old_binary_value [3] $end
$var wire 1 ^! old_binary_value [2] $end
$var wire 1 _! old_binary_value [1] $end
$var wire 1 `! old_binary_value [0] $end
$var wire 1 a! i [3] $end
$var wire 1 b! i [2] $end
$var wire 1 c! i [1] $end
$var wire 1 d! i [0] $end
$upscope $end
$upscope $end
$enddefinitions $end
#0
$dumpvars
b11110110 !
0"
0&
0%
0$
0#
0*
0)
0(
0'
0.
0-
0,
0+
x/
00
11
x2
13
14
15
06
07
08
09
0:
0;
0<
0=
0>
0?
0@
0A
0B
0C
1D
1E
1F
1G
0H
1I
1J
1K
1L
0M
0N
1O
0P
0Q
0R
0S
1T
1U
0V
0W
0X
1Y
1Z
0[
0\
1]
1^
0_
1`
1a
1b
1c
1d
1e
0f
0g
0h
0i
0j
0k
1l
0m
0n
0o
0p
0q
0r
0s
0t
0u
0v
0w
0x
0y
0z
0{
0|
0}
0~
0!!
0"!
0#!
0$!
0%!
0&!
0'!
0(!
0)!
0*!
0+!
0,!
0-!
0.!
0/!
00!
01!
12!
03!
04!
05!
06!
07!
08!
0<!
0;!
0:!
09!
0@!
0?!
0>!
0=!
0D!
0C!
0B!
0A!
0X!
0W!
0V!
0U!
0T!
0S!
0R!
0Q!
zP!
zO!
zN!
zM!
zL!
zK!
zJ!
zI!
zH!
zG!
zF!
zE!
0`!
0_!
0^!
0]!
0\!
0[!
0Z!
0Y!
0d!
0c!
0b!
0a!
$end
#10000
1"
1B
1C
0/
1@!
1Q!
1R!
1S!
1U!
1V!
1c!
1[!
1\!
1^!
1_!
1Y!
1Z!
1p
1k
0l
0Y
1V
0U
1R
1Q
1P
1M
0T
0K
1S
1m
1X
0V
1U
1q
0`
1_
0]
1h
#20000
0"
0B
0C
1/
#30000
1"
1B
1C
0/
1?!
0S!
1T!
0V!
1d!
1i
0a
1`
0^
1T
1j
0X
1V
0U
1s
#40000
0"
0B
0C
1/
#50000
1"
1B
1C
0/
1>!
0R!
1S!
0U!
0d!
1b!
0c!
1v
0p
0b
1a
0_
0T
1U
1x
0q
1X
0U
1w
0h
#60000
0"
0B
0C
1/
#70000
1"
1B
1C
0/
1<!
0?!
0Q!
1R!
0T!
1d!
1$!
1{
0i
0c
1b
0`
1T
1%!
0j
0e
0X
1U
1z
0s
0d
#80000
0"
0B
0C
1/
#90000
1"
1B
1C
0/
1;!
0>!
0@!
1Q!
0S!
0d!
1c!
1!!
0v
0k
1c
0a
0T
1W
0V
0U
1"!
0x
1e
1X
0W
1V
1U
1#!
0w
1d
#100000
0"
0B
0C
1/
#110000
1"
1B
1C
0/
1:!
0<!
1@!
0R!
1d!
1*!
0!!
1p
1k
0b
1T
1+!
0"!
1q
0X
1W
0V
0U
1)!
0#!
1h
#120000
0"
0B
0C
1/
#130000
1"
1B
1C
0/
1D!
0:!
1?!
0Q!
0d!
1a!
0b!
0c!
13!
1/!
0*!
0$!
1!!
1i
0c
0T
0m
1f
0Z
0W
1l
14!
1m
1Z
03!
04!
13!
0+!
0%!
1"!
1j
0e
14!
0)!
0z
1#!
1s
0d
#140000
0"
0B
0C
1/
#150000
1"
1B
1C
0/
1C!
0D!
1:!
0;!
1>!
0@!
0a!
15!
1'!
1t
1r
1-!
03!
0!!
0{
1v
0i
0m
0f
0Z
1Y
1?
1<
18
17
1%
1,
1(
1)
#160000
0"
0B
0C
1/
#170000
1"
1B
1C
0/
#180000
0"
0B
0C
1/
#190000
1"
1B
1C
0/
#200000
0"
0B
0C
1/
#210000
1"
1B
1C
0/
#220000
0"
0B
0C
1/
#230000
1"
1B
1C
0/
#240000
0"
0B
0C
1/
#250000
1"
1B
1C
0/
#260000
0"
0B
0C
1/
#270000
1"
1B
1C
0/
#280000
0"
0B
0C
1/
#290000
1"
1B
1C
0/
#300000
0"
0B
0C
1/
#310000
1"
1B
1C
0/
#320000
0"
0B
0C
1/
#330000
1"
1B
1C
0/
#340000
0"
0B
0C
1/
#350000
1"
1B
1C
0/
#360000
0"
0B
0C
1/
#370000
1"
1B
1C
0/
#380000
0"
0B
0C
1/
#390000
1"
1B
1C
0/
#400000
0"
0B
0C
1/
#410000
1"
1B
1C
0/
#420000
0"
0B
0C
1/
#430000
1"
1B
1C
0/
#440000
0"
0B
0C
1/
#450000
1"
1B
1C
0/
#460000
0"
0B
0C
1/
#470000
1"
1B
1C
0/
#480000
0"
0B
0C
1/
#490000
1"
1B
1C
0/
#500000
0"
0B
0C
1/
#510000
1"
1B
1C
0/
#520000
0"
0B
0C
1/
#530000
1"
1B
1C
0/
#540000
0"
0B
0C
1/
#550000
1"
1B
1C
0/
#560000
0"
0B
0C
1/
#570000
1"
1B
1C
0/
#580000
0"
0B
0C
1/
#590000
1"
1B
1C
0/
#600000
0"
0B
0C
1/
#610000
1"
1B
1C
0/
#620000
0"
0B
0C
1/
#630000
1"
1B
1C
0/
#640000
0"
0B
0C
1/
#650000
1"
1B
1C
0/
#660000
0"
0B
0C
1/
#670000
1"
1B
1C
0/
#680000
0"
0B
0C
1/
#690000
1"
1B
1C
0/
#700000
0"
0B
0C
1/
#710000
1"
1B
1C
0/
#720000
0"
0B
0C
1/
#730000
1"
1B
1C
0/
#740000
0"
0B
0C
1/
#750000
1"
1B
1C
0/
#760000
0"
0B
0C
1/
#770000
1"
1B
1C
0/
#780000
0"
0B
0C
1/
#790000
1"
1B
1C
0/
#800000
0"
0B
0C
1/
#810000
1"
1B
1C
0/
#820000
0"
0B
0C
1/
#830000
1"
1B
1C
0/
#840000
0"
0B
0C
1/
#850000
1"
1B
1C
0/
#860000
0"
0B
0C
1/
#870000
1"
1B
1C
0/
#880000
0"
0B
0C
1/
#890000
1"
1B
1C
0/
#900000
0"
0B
0C
1/
#910000
1"
1B
1C
0/
#920000
0"
0B
0C
1/
#930000
1"
1B
1C
0/
#940000
0"
0B
0C
1/
#950000
1"
1B
1C
0/
#960000
0"
0B
0C
1/
#970000
1"
1B
1C
0/
#980000
0"
0B
0C
1/
#990000
1"
1B
1C
0/
